%!PS-Adobe-3.0 EPSF-3.0
%%Creator: (MATLAB, The Mathworks, Inc. Version 9.4.0.813654 \(R2018a\). Operating System: Mac OS X)
%%Title: results/epsilon_opt.eps
%%CreationDate: 2020-06-04T12:54:26
%%Pages: (atend)
%%BoundingBox:     2    55   262   233
%%LanguageLevel: 3
%%EndComments
%%BeginProlog
%%BeginResource: procset (Apache XML Graphics Std ProcSet) 1.2 0
%%Version: 1.2 0
%%Copyright: (Copyright 2001-2003,2010 The Apache Software Foundation. License terms: http://www.apache.org/licenses/LICENSE-2.0)
/bd{bind def}bind def
/ld{load def}bd
/GR/grestore ld
/GS/gsave ld
/RM/rmoveto ld
/C/curveto ld
/t/show ld
/L/lineto ld
/ML/setmiterlimit ld
/CT/concat ld
/f/fill ld
/N/newpath ld
/S/stroke ld
/CC/setcmykcolor ld
/A/ashow ld
/cp/closepath ld
/RC/setrgbcolor ld
/LJ/setlinejoin ld
/GC/setgray ld
/LW/setlinewidth ld
/M/moveto ld
/re {4 2 roll M
1 index 0 rlineto
0 exch rlineto
neg 0 rlineto
cp } bd
/_ctm matrix def
/_tm matrix def
/BT { _ctm currentmatrix pop matrix _tm copy pop 0 0 moveto } bd
/ET { _ctm setmatrix } bd
/iTm { _ctm setmatrix _tm concat } bd
/Tm { _tm astore pop iTm 0 0 moveto } bd
/ux 0.0 def
/uy 0.0 def
/F {
  /Tp exch def
  /Tf exch def
  Tf findfont Tp scalefont setfont
  /cf Tf def  /cs Tp def
} bd
/ULS {currentpoint /uy exch def /ux exch def} bd
/ULE {
  /Tcx currentpoint pop def
  gsave
  newpath
  cf findfont cs scalefont dup
  /FontMatrix get 0 get /Ts exch def /FontInfo get dup
  /UnderlinePosition get Ts mul /To exch def
  /UnderlineThickness get Ts mul /Tt exch def
  ux uy To add moveto  Tcx uy To add lineto
  Tt setlinewidth stroke
  grestore
} bd
/OLE {
  /Tcx currentpoint pop def
  gsave
  newpath
  cf findfont cs scalefont dup
  /FontMatrix get 0 get /Ts exch def /FontInfo get dup
  /UnderlinePosition get Ts mul /To exch def
  /UnderlineThickness get Ts mul /Tt exch def
  ux uy To add cs add moveto Tcx uy To add cs add lineto
  Tt setlinewidth stroke
  grestore
} bd
/SOE {
  /Tcx currentpoint pop def
  gsave
  newpath
  cf findfont cs scalefont dup
  /FontMatrix get 0 get /Ts exch def /FontInfo get dup
  /UnderlinePosition get Ts mul /To exch def
  /UnderlineThickness get Ts mul /Tt exch def
  ux uy To add cs 10 mul 26 idiv add moveto Tcx uy To add cs 10 mul 26 idiv add lineto
  Tt setlinewidth stroke
  grestore
} bd
/QT {
/Y22 exch store
/X22 exch store
/Y21 exch store
/X21 exch store
currentpoint
/Y21 load 2 mul add 3 div exch
/X21 load 2 mul add 3 div exch
/X21 load 2 mul /X22 load add 3 div
/Y21 load 2 mul /Y22 load add 3 div
/X22 load /Y22 load curveto
} bd
/SSPD {
dup length /d exch dict def
{
/v exch def
/k exch def
currentpagedevice k known {
/cpdv currentpagedevice k get def
v cpdv ne {
/upd false def
/nullv v type /nulltype eq def
/nullcpdv cpdv type /nulltype eq def
nullv nullcpdv or
{
/upd true def
} {
/sametype v type cpdv type eq def
sametype {
v type /arraytype eq {
/vlen v length def
/cpdvlen cpdv length def
vlen cpdvlen eq {
0 1 vlen 1 sub {
/i exch def
/obj v i get def
/cpdobj cpdv i get def
obj cpdobj ne {
/upd true def
exit
} if
} for
} {
/upd true def
} ifelse
} {
v type /dicttype eq {
v {
/dv exch def
/dk exch def
/cpddv cpdv dk get def
dv cpddv ne {
/upd true def
exit
} if
} forall
} {
/upd true def
} ifelse
} ifelse
} if
} ifelse
upd true eq {
d k v put
} if
} if
} if
} forall
d length 0 gt {
d setpagedevice
} if
} bd
/RE { % /NewFontName [NewEncodingArray] /FontName RE -
  findfont dup length dict begin
  {
    1 index /FID ne
    {def} {pop pop} ifelse
  } forall
  /Encoding exch def
  /FontName 1 index def
  currentdict definefont pop
  end
} bind def
%%EndResource
%%BeginResource: procset (Apache XML Graphics EPS ProcSet) 1.0 0
%%Version: 1.0 0
%%Copyright: (Copyright 2002-2003 The Apache Software Foundation. License terms: http://www.apache.org/licenses/LICENSE-2.0)
/BeginEPSF { %def
/b4_Inc_state save def         % Save state for cleanup
/dict_count countdictstack def % Count objects on dict stack
/op_count count 1 sub def      % Count objects on operand stack
userdict begin                 % Push userdict on dict stack
/showpage { } def              % Redefine showpage, { } = null proc
0 setgray 0 setlinecap         % Prepare graphics state
1 setlinewidth 0 setlinejoin
10 setmiterlimit [ ] 0 setdash newpath
/languagelevel where           % If level not equal to 1 then
{pop languagelevel             % set strokeadjust and
1 ne                           % overprint to their defaults.
{false setstrokeadjust false setoverprint
} if
} if
} bd
/EndEPSF { %def
count op_count sub {pop} repeat            % Clean up stacks
countdictstack dict_count sub {end} repeat
b4_Inc_state restore
} bd
%%EndResource
%FOPBeginFontDict
%%IncludeResource: font Courier-Oblique
%%IncludeResource: font Courier-BoldOblique
%%IncludeResource: font Courier-Bold
%%IncludeResource: font ZapfDingbats
%%IncludeResource: font Symbol
%%IncludeResource: font Helvetica
%%IncludeResource: font Helvetica-Oblique
%%IncludeResource: font Helvetica-Bold
%%IncludeResource: font Helvetica-BoldOblique
%%IncludeResource: font Times-Roman
%%IncludeResource: font Times-Italic
%%IncludeResource: font Times-Bold
%%IncludeResource: font Times-BoldItalic
%%IncludeResource: font Courier
%FOPEndFontDict
%%BeginResource: encoding WinAnsiEncoding
/WinAnsiEncoding [
/.notdef /.notdef /.notdef /.notdef /.notdef
/.notdef /.notdef /.notdef /.notdef /.notdef
/.notdef /.notdef /.notdef /.notdef /.notdef
/.notdef /.notdef /.notdef /.notdef /.notdef
/.notdef /.notdef /.notdef /.notdef /.notdef
/.notdef /.notdef /.notdef /.notdef /.notdef
/.notdef /.notdef /space /exclam /quotedbl
/numbersign /dollar /percent /ampersand /quotesingle
/parenleft /parenright /asterisk /plus /comma
/hyphen /period /slash /zero /one
/two /three /four /five /six
/seven /eight /nine /colon /semicolon
/less /equal /greater /question /at
/A /B /C /D /E
/F /G /H /I /J
/K /L /M /N /O
/P /Q /R /S /T
/U /V /W /X /Y
/Z /bracketleft /backslash /bracketright /asciicircum
/underscore /quoteleft /a /b /c
/d /e /f /g /h
/i /j /k /l /m
/n /o /p /q /r
/s /t /u /v /w
/x /y /z /braceleft /bar
/braceright /asciitilde /bullet /Euro /bullet
/quotesinglbase /florin /quotedblbase /ellipsis /dagger
/daggerdbl /circumflex /perthousand /Scaron /guilsinglleft
/OE /bullet /Zcaron /bullet /bullet
/quoteleft /quoteright /quotedblleft /quotedblright /bullet
/endash /emdash /asciitilde /trademark /scaron
/guilsinglright /oe /bullet /zcaron /Ydieresis
/space /exclamdown /cent /sterling /currency
/yen /brokenbar /section /dieresis /copyright
/ordfeminine /guillemotleft /logicalnot /sfthyphen /registered
/macron /degree /plusminus /twosuperior /threesuperior
/acute /mu /paragraph /middot /cedilla
/onesuperior /ordmasculine /guillemotright /onequarter /onehalf
/threequarters /questiondown /Agrave /Aacute /Acircumflex
/Atilde /Adieresis /Aring /AE /Ccedilla
/Egrave /Eacute /Ecircumflex /Edieresis /Igrave
/Iacute /Icircumflex /Idieresis /Eth /Ntilde
/Ograve /Oacute /Ocircumflex /Otilde /Odieresis
/multiply /Oslash /Ugrave /Uacute /Ucircumflex
/Udieresis /Yacute /Thorn /germandbls /agrave
/aacute /acircumflex /atilde /adieresis /aring
/ae /ccedilla /egrave /eacute /ecircumflex
/edieresis /igrave /iacute /icircumflex /idieresis
/eth /ntilde /ograve /oacute /ocircumflex
/otilde /odieresis /divide /oslash /ugrave
/uacute /ucircumflex /udieresis /yacute /thorn
/ydieresis
] def
%%EndResource
%FOPBeginFontReencode
/Courier-Oblique findfont
dup length dict begin
  {1 index /FID ne {def} {pop pop} ifelse} forall
  /Encoding WinAnsiEncoding def
  currentdict
end
/Courier-Oblique exch definefont pop
/Courier-BoldOblique findfont
dup length dict begin
  {1 index /FID ne {def} {pop pop} ifelse} forall
  /Encoding WinAnsiEncoding def
  currentdict
end
/Courier-BoldOblique exch definefont pop
/Courier-Bold findfont
dup length dict begin
  {1 index /FID ne {def} {pop pop} ifelse} forall
  /Encoding WinAnsiEncoding def
  currentdict
end
/Courier-Bold exch definefont pop
/Helvetica findfont
dup length dict begin
  {1 index /FID ne {def} {pop pop} ifelse} forall
  /Encoding WinAnsiEncoding def
  currentdict
end
/Helvetica exch definefont pop
/Helvetica-Oblique findfont
dup length dict begin
  {1 index /FID ne {def} {pop pop} ifelse} forall
  /Encoding WinAnsiEncoding def
  currentdict
end
/Helvetica-Oblique exch definefont pop
/Helvetica-Bold findfont
dup length dict begin
  {1 index /FID ne {def} {pop pop} ifelse} forall
  /Encoding WinAnsiEncoding def
  currentdict
end
/Helvetica-Bold exch definefont pop
/Helvetica-BoldOblique findfont
dup length dict begin
  {1 index /FID ne {def} {pop pop} ifelse} forall
  /Encoding WinAnsiEncoding def
  currentdict
end
/Helvetica-BoldOblique exch definefont pop
/Times-Roman findfont
dup length dict begin
  {1 index /FID ne {def} {pop pop} ifelse} forall
  /Encoding WinAnsiEncoding def
  currentdict
end
/Times-Roman exch definefont pop
/Times-Italic findfont
dup length dict begin
  {1 index /FID ne {def} {pop pop} ifelse} forall
  /Encoding WinAnsiEncoding def
  currentdict
end
/Times-Italic exch definefont pop
/Times-Bold findfont
dup length dict begin
  {1 index /FID ne {def} {pop pop} ifelse} forall
  /Encoding WinAnsiEncoding def
  currentdict
end
/Times-Bold exch definefont pop
/Times-BoldItalic findfont
dup length dict begin
  {1 index /FID ne {def} {pop pop} ifelse} forall
  /Encoding WinAnsiEncoding def
  currentdict
end
/Times-BoldItalic exch definefont pop
/Courier findfont
dup length dict begin
  {1 index /FID ne {def} {pop pop} ifelse} forall
  /Encoding WinAnsiEncoding def
  currentdict
end
/Courier exch definefont pop
%FOPEndFontReencode
%%EndProlog
%%Page: 1 1
%%PageBoundingBox: 0 0 281 304
%%BeginPageSetup
[1 0 0 -1 0 304] CT
%%EndPageSetup
GS
1 GC
N
0 0 281 304 re
f
GR
GS
1 GC
N
0 0 281 304 re
f
GR
GS
1 GC
N
44.5 216.75 M
254.5 216.75 L
254.5 76.75 L
44.5 76.75 L
cp
f
GR
GS
0.775 GC
[1 3] 0 setdash
2 LJ
0.5 LW
N
44.5 216.75 M
44.5 76.75 L
S
GR
GS
0.775 GC
[1 3] 0 setdash
2 LJ
0.5 LW
N
52.951 216.75 M
52.951 76.75 L
S
GR
GS
0.775 GC
[1 3] 0 setdash
2 LJ
0.5 LW
N
59.855 216.75 M
59.855 76.75 L
S
GR
GS
0.775 GC
[1 3] 0 setdash
2 LJ
0.5 LW
N
65.693 216.75 M
65.693 76.75 L
S
GR
GS
0.775 GC
[1 3] 0 setdash
2 LJ
0.5 LW
N
70.75 216.75 M
70.75 76.75 L
S
GR
GS
0.775 GC
[1 3] 0 setdash
2 LJ
0.5 LW
N
75.211 216.75 M
75.211 76.75 L
S
GR
GS
0.775 GC
[1 3] 0 setdash
2 LJ
0.5 LW
N
105.451 216.75 M
105.451 76.75 L
S
GR
GS
0.775 GC
[1 3] 0 setdash
2 LJ
0.5 LW
N
120.806 216.75 M
120.806 76.75 L
S
GR
GS
0.775 GC
[1 3] 0 setdash
2 LJ
0.5 LW
N
131.701 216.75 M
131.701 76.75 L
S
GR
GS
0.775 GC
[1 3] 0 setdash
2 LJ
0.5 LW
N
140.151 216.75 M
140.151 76.75 L
S
GR
GS
0.775 GC
[1 3] 0 setdash
2 LJ
0.5 LW
N
147.056 216.75 M
147.056 76.75 L
S
GR
GS
0.775 GC
[1 3] 0 setdash
2 LJ
0.5 LW
N
152.894 216.75 M
152.894 76.75 L
S
GR
GS
0.775 GC
[1 3] 0 setdash
2 LJ
0.5 LW
N
157.951 216.75 M
157.951 76.75 L
S
GR
GS
0.775 GC
[1 3] 0 setdash
2 LJ
0.5 LW
N
162.411 216.75 M
162.411 76.75 L
S
GR
GS
0.775 GC
[1 3] 0 setdash
2 LJ
0.5 LW
N
192.651 216.75 M
192.651 76.75 L
S
GR
GS
0.775 GC
[1 3] 0 setdash
2 LJ
0.5 LW
N
208.007 216.75 M
208.007 76.75 L
S
GR
GS
0.775 GC
[1 3] 0 setdash
2 LJ
0.5 LW
N
218.901 216.75 M
218.901 76.75 L
S
GR
GS
0.775 GC
[1 3] 0 setdash
2 LJ
0.5 LW
N
227.352 216.75 M
227.352 76.75 L
S
GR
GS
0.775 GC
[1 3] 0 setdash
2 LJ
0.5 LW
N
234.257 216.75 M
234.257 76.75 L
S
GR
GS
0.775 GC
[1 3] 0 setdash
2 LJ
0.5 LW
N
240.094 216.75 M
240.094 76.75 L
S
GR
GS
0.775 GC
[1 3] 0 setdash
2 LJ
0.5 LW
N
245.151 216.75 M
245.151 76.75 L
S
GR
GS
0.775 GC
[1 3] 0 setdash
2 LJ
0.5 LW
N
249.612 216.75 M
249.612 76.75 L
S
GR
GS
0.873 GC
1 LJ
0.5 LW
N
79.201 216.75 M
79.201 76.75 L
S
GR
GS
0.873 GC
1 LJ
0.5 LW
N
166.401 216.75 M
166.401 76.75 L
S
GR
GS
0.873 GC
1 LJ
0.5 LW
N
253.602 216.75 M
253.602 76.75 L
S
GR
GS
0.775 GC
[1 3] 0 setdash
2 LJ
0.5 LW
N
254.5 206.214 M
44.5 206.214 L
S
GR
GS
0.775 GC
[1 3] 0 setdash
2 LJ
0.5 LW
N
254.5 200.051 M
44.5 200.051 L
S
GR
GS
0.775 GC
[1 3] 0 setdash
2 LJ
0.5 LW
N
254.5 195.678 M
44.5 195.678 L
S
GR
GS
0.775 GC
[1 3] 0 setdash
2 LJ
0.5 LW
N
254.5 192.286 M
44.5 192.286 L
S
GR
GS
0.775 GC
[1 3] 0 setdash
2 LJ
0.5 LW
N
254.5 189.515 M
44.5 189.515 L
S
GR
GS
0.775 GC
[1 3] 0 setdash
2 LJ
0.5 LW
N
254.5 187.172 M
44.5 187.172 L
S
GR
GS
0.775 GC
[1 3] 0 setdash
2 LJ
0.5 LW
N
254.5 185.142 M
44.5 185.142 L
S
GR
GS
0.775 GC
[1 3] 0 setdash
2 LJ
0.5 LW
N
254.5 183.352 M
44.5 183.352 L
S
GR
GS
0.775 GC
[1 3] 0 setdash
2 LJ
0.5 LW
N
254.5 171.214 M
44.5 171.214 L
S
GR
GS
0.775 GC
[1 3] 0 setdash
2 LJ
0.5 LW
N
254.5 165.051 M
44.5 165.051 L
S
GR
GS
0.775 GC
[1 3] 0 setdash
2 LJ
0.5 LW
N
254.5 160.678 M
44.5 160.678 L
S
GR
GS
0.775 GC
[1 3] 0 setdash
2 LJ
0.5 LW
N
254.5 157.286 M
44.5 157.286 L
S
GR
GS
0.775 GC
[1 3] 0 setdash
2 LJ
0.5 LW
N
254.5 154.515 M
44.5 154.515 L
S
GR
GS
0.775 GC
[1 3] 0 setdash
2 LJ
0.5 LW
N
254.5 152.172 M
44.5 152.172 L
S
GR
GS
0.775 GC
[1 3] 0 setdash
2 LJ
0.5 LW
N
254.5 150.142 M
44.5 150.142 L
S
GR
GS
0.775 GC
[1 3] 0 setdash
2 LJ
0.5 LW
N
254.5 148.352 M
44.5 148.352 L
S
GR
GS
0.775 GC
[1 3] 0 setdash
2 LJ
0.5 LW
N
254.5 146.75 M
44.5 146.75 L
S
GR
GS
0.775 GC
[1 3] 0 setdash
2 LJ
0.5 LW
N
254.5 136.214 M
44.5 136.214 L
S
GR
GS
0.775 GC
[1 3] 0 setdash
2 LJ
0.5 LW
N
254.5 130.051 M
44.5 130.051 L
S
GR
GS
0.775 GC
[1 3] 0 setdash
2 LJ
0.5 LW
N
254.5 125.678 M
44.5 125.678 L
S
GR
GS
0.775 GC
[1 3] 0 setdash
2 LJ
0.5 LW
N
254.5 122.286 M
44.5 122.286 L
S
GR
GS
0.775 GC
[1 3] 0 setdash
2 LJ
0.5 LW
N
254.5 119.515 M
44.5 119.515 L
S
GR
GS
0.775 GC
[1 3] 0 setdash
2 LJ
0.5 LW
N
254.5 117.172 M
44.5 117.172 L
S
GR
GS
0.775 GC
[1 3] 0 setdash
2 LJ
0.5 LW
N
254.5 115.142 M
44.5 115.142 L
S
GR
GS
0.775 GC
[1 3] 0 setdash
2 LJ
0.5 LW
N
254.5 113.352 M
44.5 113.352 L
S
GR
GS
0.775 GC
[1 3] 0 setdash
2 LJ
0.5 LW
N
254.5 101.214 M
44.5 101.214 L
S
GR
GS
0.775 GC
[1 3] 0 setdash
2 LJ
0.5 LW
N
254.5 95.051 M
44.5 95.051 L
S
GR
GS
0.775 GC
[1 3] 0 setdash
2 LJ
0.5 LW
N
254.5 90.678 M
44.5 90.678 L
S
GR
GS
0.775 GC
[1 3] 0 setdash
2 LJ
0.5 LW
N
254.5 87.286 M
44.5 87.286 L
S
GR
GS
0.775 GC
[1 3] 0 setdash
2 LJ
0.5 LW
N
254.5 84.515 M
44.5 84.515 L
S
GR
GS
0.775 GC
[1 3] 0 setdash
2 LJ
0.5 LW
N
254.5 82.172 M
44.5 82.172 L
S
GR
GS
0.775 GC
[1 3] 0 setdash
2 LJ
0.5 LW
N
254.5 80.142 M
44.5 80.142 L
S
GR
GS
0.775 GC
[1 3] 0 setdash
2 LJ
0.5 LW
N
254.5 78.352 M
44.5 78.352 L
S
GR
GS
0.873 GC
1 LJ
0.5 LW
N
254.5 216.75 M
44.5 216.75 L
S
GR
GS
0.873 GC
1 LJ
0.5 LW
N
254.5 181.75 M
44.5 181.75 L
S
GR
GS
0.873 GC
1 LJ
0.5 LW
N
254.5 146.75 M
44.5 146.75 L
S
GR
GS
0.873 GC
1 LJ
0.5 LW
N
254.5 111.75 M
44.5 111.75 L
S
GR
GS
0.873 GC
1 LJ
0.5 LW
N
254.5 76.75 M
44.5 76.75 L
S
GR
GS
0.149 GC
2 setlinecap
1 LJ
0.5 LW
N
44.5 216.75 M
254.5 216.75 L
S
GR
GS
0.149 GC
2 setlinecap
1 LJ
0.5 LW
N
44.5 76.75 M
254.5 76.75 L
S
GR
GS
0.149 GC
2 setlinecap
1 LJ
0.5 LW
N
79.201 216.75 M
79.201 214.65 L
S
GR
GS
0.149 GC
2 setlinecap
1 LJ
0.5 LW
N
166.401 216.75 M
166.401 214.65 L
S
GR
GS
0.149 GC
2 setlinecap
1 LJ
0.5 LW
N
253.602 216.75 M
253.602 214.65 L
S
GR
GS
0.149 GC
2 setlinecap
1 LJ
0.5 LW
N
79.201 76.75 M
79.201 78.85 L
S
GR
GS
0.149 GC
2 setlinecap
1 LJ
0.5 LW
N
166.401 76.75 M
166.401 78.85 L
S
GR
GS
0.149 GC
2 setlinecap
1 LJ
0.5 LW
N
253.602 76.75 M
253.602 78.85 L
S
GR
GS
0.149 GC
2 setlinecap
1 LJ
0.5 LW
N
44.5 216.75 M
44.5 215.7 L
S
GR
GS
0.149 GC
2 setlinecap
1 LJ
0.5 LW
N
52.951 216.75 M
52.951 215.7 L
S
GR
GS
0.149 GC
2 setlinecap
1 LJ
0.5 LW
N
59.855 216.75 M
59.855 215.7 L
S
GR
GS
0.149 GC
2 setlinecap
1 LJ
0.5 LW
N
65.693 216.75 M
65.693 215.7 L
S
GR
GS
0.149 GC
2 setlinecap
1 LJ
0.5 LW
N
70.75 216.75 M
70.75 215.7 L
S
GR
GS
0.149 GC
2 setlinecap
1 LJ
0.5 LW
N
75.211 216.75 M
75.211 215.7 L
S
GR
GS
0.149 GC
2 setlinecap
1 LJ
0.5 LW
N
79.201 216.75 M
79.201 215.7 L
S
GR
GS
0.149 GC
2 setlinecap
1 LJ
0.5 LW
N
105.451 216.75 M
105.451 215.7 L
S
GR
GS
0.149 GC
2 setlinecap
1 LJ
0.5 LW
N
120.806 216.75 M
120.806 215.7 L
S
GR
GS
0.149 GC
2 setlinecap
1 LJ
0.5 LW
N
131.701 216.75 M
131.701 215.7 L
S
GR
GS
0.149 GC
2 setlinecap
1 LJ
0.5 LW
N
140.151 216.75 M
140.151 215.7 L
S
GR
GS
0.149 GC
2 setlinecap
1 LJ
0.5 LW
N
147.056 216.75 M
147.056 215.7 L
S
GR
GS
0.149 GC
2 setlinecap
1 LJ
0.5 LW
N
152.894 216.75 M
152.894 215.7 L
S
GR
GS
0.149 GC
2 setlinecap
1 LJ
0.5 LW
N
157.951 216.75 M
157.951 215.7 L
S
GR
GS
0.149 GC
2 setlinecap
1 LJ
0.5 LW
N
162.411 216.75 M
162.411 215.7 L
S
GR
GS
0.149 GC
2 setlinecap
1 LJ
0.5 LW
N
166.401 216.75 M
166.401 215.7 L
S
GR
GS
0.149 GC
2 setlinecap
1 LJ
0.5 LW
N
192.651 216.75 M
192.651 215.7 L
S
GR
GS
0.149 GC
2 setlinecap
1 LJ
0.5 LW
N
208.007 216.75 M
208.007 215.7 L
S
GR
GS
0.149 GC
2 setlinecap
1 LJ
0.5 LW
N
218.901 216.75 M
218.901 215.7 L
S
GR
GS
0.149 GC
2 setlinecap
1 LJ
0.5 LW
N
227.352 216.75 M
227.352 215.7 L
S
GR
GS
0.149 GC
2 setlinecap
1 LJ
0.5 LW
N
234.257 216.75 M
234.257 215.7 L
S
GR
GS
0.149 GC
2 setlinecap
1 LJ
0.5 LW
N
240.094 216.75 M
240.094 215.7 L
S
GR
GS
0.149 GC
2 setlinecap
1 LJ
0.5 LW
N
245.151 216.75 M
245.151 215.7 L
S
GR
GS
0.149 GC
2 setlinecap
1 LJ
0.5 LW
N
249.612 216.75 M
249.612 215.7 L
S
GR
GS
0.149 GC
2 setlinecap
1 LJ
0.5 LW
N
253.602 216.75 M
253.602 215.7 L
S
GR
GS
0.149 GC
2 setlinecap
1 LJ
0.5 LW
N
44.5 76.75 M
44.5 77.8 L
S
GR
GS
0.149 GC
2 setlinecap
1 LJ
0.5 LW
N
52.951 76.75 M
52.951 77.8 L
S
GR
GS
0.149 GC
2 setlinecap
1 LJ
0.5 LW
N
59.855 76.75 M
59.855 77.8 L
S
GR
GS
0.149 GC
2 setlinecap
1 LJ
0.5 LW
N
65.693 76.75 M
65.693 77.8 L
S
GR
GS
0.149 GC
2 setlinecap
1 LJ
0.5 LW
N
70.75 76.75 M
70.75 77.8 L
S
GR
GS
0.149 GC
2 setlinecap
1 LJ
0.5 LW
N
75.211 76.75 M
75.211 77.8 L
S
GR
GS
0.149 GC
2 setlinecap
1 LJ
0.5 LW
N
79.201 76.75 M
79.201 77.8 L
S
GR
GS
0.149 GC
2 setlinecap
1 LJ
0.5 LW
N
105.451 76.75 M
105.451 77.8 L
S
GR
GS
0.149 GC
2 setlinecap
1 LJ
0.5 LW
N
120.806 76.75 M
120.806 77.8 L
S
GR
GS
0.149 GC
2 setlinecap
1 LJ
0.5 LW
N
131.701 76.75 M
131.701 77.8 L
S
GR
GS
0.149 GC
2 setlinecap
1 LJ
0.5 LW
N
140.151 76.75 M
140.151 77.8 L
S
GR
GS
0.149 GC
2 setlinecap
1 LJ
0.5 LW
N
147.056 76.75 M
147.056 77.8 L
S
GR
GS
0.149 GC
2 setlinecap
1 LJ
0.5 LW
N
152.894 76.75 M
152.894 77.8 L
S
GR
GS
0.149 GC
2 setlinecap
1 LJ
0.5 LW
N
157.951 76.75 M
157.951 77.8 L
S
GR
GS
0.149 GC
2 setlinecap
1 LJ
0.5 LW
N
162.411 76.75 M
162.411 77.8 L
S
GR
GS
0.149 GC
2 setlinecap
1 LJ
0.5 LW
N
166.401 76.75 M
166.401 77.8 L
S
GR
GS
0.149 GC
2 setlinecap
1 LJ
0.5 LW
N
192.651 76.75 M
192.651 77.8 L
S
GR
GS
0.149 GC
2 setlinecap
1 LJ
0.5 LW
N
208.007 76.75 M
208.007 77.8 L
S
GR
GS
0.149 GC
2 setlinecap
1 LJ
0.5 LW
N
218.901 76.75 M
218.901 77.8 L
S
GR
GS
0.149 GC
2 setlinecap
1 LJ
0.5 LW
N
227.352 76.75 M
227.352 77.8 L
S
GR
GS
0.149 GC
2 setlinecap
1 LJ
0.5 LW
N
234.257 76.75 M
234.257 77.8 L
S
GR
GS
0.149 GC
2 setlinecap
1 LJ
0.5 LW
N
240.094 76.75 M
240.094 77.8 L
S
GR
GS
0.149 GC
2 setlinecap
1 LJ
0.5 LW
N
245.151 76.75 M
245.151 77.8 L
S
GR
GS
0.149 GC
2 setlinecap
1 LJ
0.5 LW
N
249.612 76.75 M
249.612 77.8 L
S
GR
GS
0.149 GC
2 setlinecap
1 LJ
0.5 LW
N
253.602 76.75 M
253.602 77.8 L
S
GR
GS
[1 0 0 1 70 234] CT
0.149 GC
/Helvetica 10 F
GS
[1 0 0 1 0 0] CT
0 0 moveto 
1 -1 scale
(10) t 
GR
GR
GS
[1 0 0 1 82 229] CT
0.149 GC
/Helvetica 8 F
GS
[1 0 0 1 0 0] CT
0 0 moveto 
1 -1 scale
(1) t 
GR
GR
GS
[1 0 0 1 157 234] CT
0.149 GC
/Helvetica 10 F
GS
[1 0 0 1 0 0] CT
0 0 moveto 
1 -1 scale
(10) t 
GR
GR
GS
[1 0 0 1 169 229] CT
0.149 GC
/Helvetica 8 F
GS
[1 0 0 1 0 0] CT
0 0 moveto 
1 -1 scale
(2) t 
GR
GR
GS
[1 0 0 1 245 234] CT
0.149 GC
/Helvetica 10 F
GS
[1 0 0 1 0 0] CT
0 0 moveto 
1 -1 scale
(10) t 
GR
GR
GS
[1 0 0 1 257 229] CT
0.149 GC
/Helvetica 8 F
GS
[1 0 0 1 0 0] CT
0 0 moveto 
1 -1 scale
(3) t 
GR
GR
GS
[1 0 0 1 149.50011 237.25] CT
0.149 GC
/Helvetica 11 F
GS
[1 0 0 1 0 0] CT
-3.5 11 moveto 
1 -1 scale
(n) t 
GR
GR
GS
0.149 GC
2 setlinecap
1 LJ
0.5 LW
N
44.5 216.75 M
44.5 76.75 L
S
GR
GS
0.149 GC
2 setlinecap
1 LJ
0.5 LW
N
254.5 216.75 M
254.5 76.75 L
S
GR
GS
0.149 GC
2 setlinecap
1 LJ
0.5 LW
N
44.5 216.75 M
46.6 216.75 L
S
GR
GS
0.149 GC
2 setlinecap
1 LJ
0.5 LW
N
44.5 181.75 M
46.6 181.75 L
S
GR
GS
0.149 GC
2 setlinecap
1 LJ
0.5 LW
N
44.5 146.75 M
46.6 146.75 L
S
GR
GS
0.149 GC
2 setlinecap
1 LJ
0.5 LW
N
44.5 111.75 M
46.6 111.75 L
S
GR
GS
0.149 GC
2 setlinecap
1 LJ
0.5 LW
N
44.5 76.75 M
46.6 76.75 L
S
GR
GS
0.149 GC
2 setlinecap
1 LJ
0.5 LW
N
254.5 216.75 M
252.4 216.75 L
S
GR
GS
0.149 GC
2 setlinecap
1 LJ
0.5 LW
N
254.5 181.75 M
252.4 181.75 L
S
GR
GS
0.149 GC
2 setlinecap
1 LJ
0.5 LW
N
254.5 146.75 M
252.4 146.75 L
S
GR
GS
0.149 GC
2 setlinecap
1 LJ
0.5 LW
N
254.5 111.75 M
252.4 111.75 L
S
GR
GS
0.149 GC
2 setlinecap
1 LJ
0.5 LW
N
254.5 76.75 M
252.4 76.75 L
S
GR
GS
0.149 GC
2 setlinecap
1 LJ
0.5 LW
N
44.5 216.75 M
45.55 216.75 L
S
GR
GS
0.149 GC
2 setlinecap
1 LJ
0.5 LW
N
44.5 206.214 M
45.55 206.214 L
S
GR
GS
0.149 GC
2 setlinecap
1 LJ
0.5 LW
N
44.5 200.051 M
45.55 200.051 L
S
GR
GS
0.149 GC
2 setlinecap
1 LJ
0.5 LW
N
44.5 195.678 M
45.55 195.678 L
S
GR
GS
0.149 GC
2 setlinecap
1 LJ
0.5 LW
N
44.5 192.286 M
45.55 192.286 L
S
GR
GS
0.149 GC
2 setlinecap
1 LJ
0.5 LW
N
44.5 189.515 M
45.55 189.515 L
S
GR
GS
0.149 GC
2 setlinecap
1 LJ
0.5 LW
N
44.5 187.172 M
45.55 187.172 L
S
GR
GS
0.149 GC
2 setlinecap
1 LJ
0.5 LW
N
44.5 185.142 M
45.55 185.142 L
S
GR
GS
0.149 GC
2 setlinecap
1 LJ
0.5 LW
N
44.5 183.352 M
45.55 183.352 L
S
GR
GS
0.149 GC
2 setlinecap
1 LJ
0.5 LW
N
44.5 181.75 M
45.55 181.75 L
S
GR
GS
0.149 GC
2 setlinecap
1 LJ
0.5 LW
N
44.5 171.214 M
45.55 171.214 L
S
GR
GS
0.149 GC
2 setlinecap
1 LJ
0.5 LW
N
44.5 165.051 M
45.55 165.051 L
S
GR
GS
0.149 GC
2 setlinecap
1 LJ
0.5 LW
N
44.5 160.678 M
45.55 160.678 L
S
GR
GS
0.149 GC
2 setlinecap
1 LJ
0.5 LW
N
44.5 157.286 M
45.55 157.286 L
S
GR
GS
0.149 GC
2 setlinecap
1 LJ
0.5 LW
N
44.5 154.515 M
45.55 154.515 L
S
GR
GS
0.149 GC
2 setlinecap
1 LJ
0.5 LW
N
44.5 152.172 M
45.55 152.172 L
S
GR
GS
0.149 GC
2 setlinecap
1 LJ
0.5 LW
N
44.5 150.142 M
45.55 150.142 L
S
GR
GS
0.149 GC
2 setlinecap
1 LJ
0.5 LW
N
44.5 148.352 M
45.55 148.352 L
S
GR
GS
0.149 GC
2 setlinecap
1 LJ
0.5 LW
N
44.5 146.75 M
45.55 146.75 L
S
GR
GS
0.149 GC
2 setlinecap
1 LJ
0.5 LW
N
44.5 146.75 M
45.55 146.75 L
S
GR
GS
0.149 GC
2 setlinecap
1 LJ
0.5 LW
N
44.5 136.214 M
45.55 136.214 L
S
GR
GS
0.149 GC
2 setlinecap
1 LJ
0.5 LW
N
44.5 130.051 M
45.55 130.051 L
S
GR
GS
0.149 GC
2 setlinecap
1 LJ
0.5 LW
N
44.5 125.678 M
45.55 125.678 L
S
GR
GS
0.149 GC
2 setlinecap
1 LJ
0.5 LW
N
44.5 122.286 M
45.55 122.286 L
S
GR
GS
0.149 GC
2 setlinecap
1 LJ
0.5 LW
N
44.5 119.515 M
45.55 119.515 L
S
GR
GS
0.149 GC
2 setlinecap
1 LJ
0.5 LW
N
44.5 117.172 M
45.55 117.172 L
S
GR
GS
0.149 GC
2 setlinecap
1 LJ
0.5 LW
N
44.5 115.142 M
45.55 115.142 L
S
GR
GS
0.149 GC
2 setlinecap
1 LJ
0.5 LW
N
44.5 113.352 M
45.55 113.352 L
S
GR
GS
0.149 GC
2 setlinecap
1 LJ
0.5 LW
N
44.5 111.75 M
45.55 111.75 L
S
GR
GS
0.149 GC
2 setlinecap
1 LJ
0.5 LW
N
44.5 101.214 M
45.55 101.214 L
S
GR
GS
0.149 GC
2 setlinecap
1 LJ
0.5 LW
N
44.5 95.051 M
45.55 95.051 L
S
GR
GS
0.149 GC
2 setlinecap
1 LJ
0.5 LW
N
44.5 90.678 M
45.55 90.678 L
S
GR
GS
0.149 GC
2 setlinecap
1 LJ
0.5 LW
N
44.5 87.286 M
45.55 87.286 L
S
GR
GS
0.149 GC
2 setlinecap
1 LJ
0.5 LW
N
44.5 84.515 M
45.55 84.515 L
S
GR
GS
0.149 GC
2 setlinecap
1 LJ
0.5 LW
N
44.5 82.172 M
45.55 82.172 L
S
GR
GS
0.149 GC
2 setlinecap
1 LJ
0.5 LW
N
44.5 80.142 M
45.55 80.142 L
S
GR
GS
0.149 GC
2 setlinecap
1 LJ
0.5 LW
N
44.5 78.352 M
45.55 78.352 L
S
GR
GS
0.149 GC
2 setlinecap
1 LJ
0.5 LW
N
44.5 76.75 M
45.55 76.75 L
S
GR
GS
0.149 GC
2 setlinecap
1 LJ
0.5 LW
N
254.5 216.75 M
253.45 216.75 L
S
GR
GS
0.149 GC
2 setlinecap
1 LJ
0.5 LW
N
254.5 206.214 M
253.45 206.214 L
S
GR
GS
0.149 GC
2 setlinecap
1 LJ
0.5 LW
N
254.5 200.051 M
253.45 200.051 L
S
GR
GS
0.149 GC
2 setlinecap
1 LJ
0.5 LW
N
254.5 195.678 M
253.45 195.678 L
S
GR
GS
0.149 GC
2 setlinecap
1 LJ
0.5 LW
N
254.5 192.286 M
253.45 192.286 L
S
GR
GS
0.149 GC
2 setlinecap
1 LJ
0.5 LW
N
254.5 189.515 M
253.45 189.515 L
S
GR
GS
0.149 GC
2 setlinecap
1 LJ
0.5 LW
N
254.5 187.172 M
253.45 187.172 L
S
GR
GS
0.149 GC
2 setlinecap
1 LJ
0.5 LW
N
254.5 185.142 M
253.45 185.142 L
S
GR
GS
0.149 GC
2 setlinecap
1 LJ
0.5 LW
N
254.5 183.352 M
253.45 183.352 L
S
GR
GS
0.149 GC
2 setlinecap
1 LJ
0.5 LW
N
254.5 181.75 M
253.45 181.75 L
S
GR
GS
0.149 GC
2 setlinecap
1 LJ
0.5 LW
N
254.5 171.214 M
253.45 171.214 L
S
GR
GS
0.149 GC
2 setlinecap
1 LJ
0.5 LW
N
254.5 165.051 M
253.45 165.051 L
S
GR
GS
0.149 GC
2 setlinecap
1 LJ
0.5 LW
N
254.5 160.678 M
253.45 160.678 L
S
GR
GS
0.149 GC
2 setlinecap
1 LJ
0.5 LW
N
254.5 157.286 M
253.45 157.286 L
S
GR
GS
0.149 GC
2 setlinecap
1 LJ
0.5 LW
N
254.5 154.515 M
253.45 154.515 L
S
GR
GS
0.149 GC
2 setlinecap
1 LJ
0.5 LW
N
254.5 152.172 M
253.45 152.172 L
S
GR
GS
0.149 GC
2 setlinecap
1 LJ
0.5 LW
N
254.5 150.142 M
253.45 150.142 L
S
GR
GS
0.149 GC
2 setlinecap
1 LJ
0.5 LW
N
254.5 148.352 M
253.45 148.352 L
S
GR
GS
0.149 GC
2 setlinecap
1 LJ
0.5 LW
N
254.5 146.75 M
253.45 146.75 L
S
GR
GS
0.149 GC
2 setlinecap
1 LJ
0.5 LW
N
254.5 146.75 M
253.45 146.75 L
S
GR
GS
0.149 GC
2 setlinecap
1 LJ
0.5 LW
N
254.5 136.214 M
253.45 136.214 L
S
GR
GS
0.149 GC
2 setlinecap
1 LJ
0.5 LW
N
254.5 130.051 M
253.45 130.051 L
S
GR
GS
0.149 GC
2 setlinecap
1 LJ
0.5 LW
N
254.5 125.678 M
253.45 125.678 L
S
GR
GS
0.149 GC
2 setlinecap
1 LJ
0.5 LW
N
254.5 122.286 M
253.45 122.286 L
S
GR
GS
0.149 GC
2 setlinecap
1 LJ
0.5 LW
N
254.5 119.515 M
253.45 119.515 L
S
GR
GS
0.149 GC
2 setlinecap
1 LJ
0.5 LW
N
254.5 117.172 M
253.45 117.172 L
S
GR
GS
0.149 GC
2 setlinecap
1 LJ
0.5 LW
N
254.5 115.142 M
253.45 115.142 L
S
GR
GS
0.149 GC
2 setlinecap
1 LJ
0.5 LW
N
254.5 113.352 M
253.45 113.352 L
S
GR
GS
0.149 GC
2 setlinecap
1 LJ
0.5 LW
N
254.5 111.75 M
253.45 111.75 L
S
GR
GS
0.149 GC
2 setlinecap
1 LJ
0.5 LW
N
254.5 101.214 M
253.45 101.214 L
S
GR
GS
0.149 GC
2 setlinecap
1 LJ
0.5 LW
N
254.5 95.051 M
253.45 95.051 L
S
GR
GS
0.149 GC
2 setlinecap
1 LJ
0.5 LW
N
254.5 90.678 M
253.45 90.678 L
S
GR
GS
0.149 GC
2 setlinecap
1 LJ
0.5 LW
N
254.5 87.286 M
253.45 87.286 L
S
GR
GS
0.149 GC
2 setlinecap
1 LJ
0.5 LW
N
254.5 84.515 M
253.45 84.515 L
S
GR
GS
0.149 GC
2 setlinecap
1 LJ
0.5 LW
N
254.5 82.172 M
253.45 82.172 L
S
GR
GS
0.149 GC
2 setlinecap
1 LJ
0.5 LW
N
254.5 80.142 M
253.45 80.142 L
S
GR
GS
0.149 GC
2 setlinecap
1 LJ
0.5 LW
N
254.5 78.352 M
253.45 78.352 L
S
GR
GS
0.149 GC
2 setlinecap
1 LJ
0.5 LW
N
254.5 76.75 M
253.45 76.75 L
S
GR
GS
[1 0 0 1 21 222] CT
0.149 GC
/Helvetica 10 F
GS
[1 0 0 1 0 0] CT
0 0 moveto 
1 -1 scale
(10) t 
GR
GR
GS
[1 0 0 1 33 217] CT
0.149 GC
/Helvetica 8 F
GS
[1 0 0 1 0 0] CT
0 0 moveto 
1 -1 scale
(-6) t 
GR
GR
GS
[1 0 0 1 21 187] CT
0.149 GC
/Helvetica 10 F
GS
[1 0 0 1 0 0] CT
0 0 moveto 
1 -1 scale
(10) t 
GR
GR
GS
[1 0 0 1 33 182] CT
0.149 GC
/Helvetica 8 F
GS
[1 0 0 1 0 0] CT
0 0 moveto 
1 -1 scale
(-5) t 
GR
GR
GS
[1 0 0 1 21 152] CT
0.149 GC
/Helvetica 10 F
GS
[1 0 0 1 0 0] CT
0 0 moveto 
1 -1 scale
(10) t 
GR
GR
GS
[1 0 0 1 33 147] CT
0.149 GC
/Helvetica 8 F
GS
[1 0 0 1 0 0] CT
0 0 moveto 
1 -1 scale
(-4) t 
GR
GR
GS
[1 0 0 1 21 117] CT
0.149 GC
/Helvetica 10 F
GS
[1 0 0 1 0 0] CT
0 0 moveto 
1 -1 scale
(10) t 
GR
GR
GS
[1 0 0 1 33 112] CT
0.149 GC
/Helvetica 8 F
GS
[1 0 0 1 0 0] CT
0 0 moveto 
1 -1 scale
(-3) t 
GR
GR
GS
[1 0 0 1 21 82] CT
0.149 GC
/Helvetica 10 F
GS
[1 0 0 1 0 0] CT
0 0 moveto 
1 -1 scale
(10) t 
GR
GR
GS
[1 0 0 1 33 77] CT
0.149 GC
/Helvetica 8 F
GS
[1 0 0 1 0 0] CT
0 0 moveto 
1 -1 scale
(-2) t 
GR
GR
GS
[0 -1 1 0 11 163] CT
0.149 GC
N
1.359 -1.547 M
1.359 -1.188 1.492 -0.867 QT
1.625 -0.547 1.898 -0.359 QT
2.172 -0.172 2.531 -0.172 QT
2.781 -0.172 3.055 -0.273 QT
3.328 -0.375 3.57 -0.508 QT
3.813 -0.641 3.813 -0.641 QT
3.875 -0.641 3.914 -0.57 QT
3.953 -0.5 3.953 -0.438 QT
3.953 -0.375 3.922 -0.359 QT
3.234 0.125 2.516 0.125 QT
1.938 0.125 1.469 -0.148 QT
1 -0.422 0.75 -0.906 QT
0.5 -1.391 0.5 -1.953 QT
0.5 -2.531 0.727 -3.047 QT
0.953 -3.563 1.359 -3.938 QT
1.766 -4.313 2.281 -4.531 QT
2.797 -4.75 3.375 -4.75 QT
3.984 -4.75 L
4.156 -4.75 4.156 -4.578 QT
4.156 -4.484 4.094 -4.422 QT
4.031 -4.359 3.953 -4.359 QT
3.344 -4.359 L
2.906 -4.359 2.547 -4.164 QT
2.188 -3.969 1.945 -3.625 QT
1.703 -3.281 1.578 -2.844 QT
3.516 -2.844 L
3.594 -2.844 3.641 -2.797 QT
3.688 -2.75 3.688 -2.688 QT
3.688 -2.594 3.625 -2.531 QT
3.563 -2.469 3.469 -2.469 QT
1.469 -2.469 L
1.359 -1.891 1.359 -1.547 QT
cp
f
GR
GS
[0 -1 1 0 16 158] CT
0.149 GC
/Helvetica 8.8 F
GS
[1 0 0 1 0 0] CT
0 0 moveto 
1 -1 scale
(opt) t 
GR
GR
GS
[0 -1 1 0 11 144] CT
0.149 GC
/Helvetica 11 F
GS
[1 0 0 1 0 0] CT
0 0 moveto 
1 -1 scale
(\(n\)) t 
GR
GR
GS
1 LJ
2 LW
N
44.5 76.75 M
59.855 76.75 L
70.75 84.118 L
82.81 84.118 L
97 98.855 L
110.743 106.224 L
123.25 113.592 L
136.161 128.329 L
149.5 143.066 L
162.83 150.434 L
175.75 172.539 L
188.871 172.539 L
202 187.276 L
215.121 194.645 L
228.25 209.382 L
241.371 216.75 L
254.5 216.75 L
S
GR
GS
[2 2] 0 setdash
2 LJ
2 LW
N
44.5 76.75 M
59.855 76.75 L
70.75 76.75 L
82.81 76.75 L
97 76.75 L
110.743 84.118 L
123.25 91.487 L
136.161 98.855 L
149.5 106.224 L
162.83 106.224 L
175.75 113.592 L
188.871 120.961 L
202 128.329 L
215.121 157.803 L
228.25 157.803 L
241.371 157.803 L
254.5 157.803 L
S
GR
GS
[8 8] 0 setdash
2 LJ
2 LW
N
44.5 76.75 M
59.855 76.75 L
70.75 76.75 L
82.81 76.75 L
97 84.118 L
110.743 91.487 L
123.25 98.855 L
136.161 106.224 L
149.5 106.224 L
162.83 113.592 L
175.75 120.961 L
188.871 128.329 L
202 143.066 L
215.121 165.171 L
228.25 165.171 L
241.371 157.803 L
254.5 165.171 L
S
GR
%%Trailer
%%Pages: 1
%%EOF
