%!PS-Adobe-3.0 EPSF-3.0
%%Creator: (MATLAB, The Mathworks, Inc. Version 9.4.0.813654 \(R2018a\). Operating System: Mac OS X)
%%Title: results/Error_epsilon.eps
%%CreationDate: 2020-06-04T12:52:17
%%Pages: (atend)
%%BoundingBox:     2    53   256   230
%%LanguageLevel: 3
%%EndComments
%%BeginProlog
%%BeginResource: procset (Apache XML Graphics Std ProcSet) 1.2 0
%%Version: 1.2 0
%%Copyright: (Copyright 2001-2003,2010 The Apache Software Foundation. License terms: http://www.apache.org/licenses/LICENSE-2.0)
/bd{bind def}bind def
/ld{load def}bd
/GR/grestore ld
/GS/gsave ld
/RM/rmoveto ld
/C/curveto ld
/t/show ld
/L/lineto ld
/ML/setmiterlimit ld
/CT/concat ld
/f/fill ld
/N/newpath ld
/S/stroke ld
/CC/setcmykcolor ld
/A/ashow ld
/cp/closepath ld
/RC/setrgbcolor ld
/LJ/setlinejoin ld
/GC/setgray ld
/LW/setlinewidth ld
/M/moveto ld
/re {4 2 roll M
1 index 0 rlineto
0 exch rlineto
neg 0 rlineto
cp } bd
/_ctm matrix def
/_tm matrix def
/BT { _ctm currentmatrix pop matrix _tm copy pop 0 0 moveto } bd
/ET { _ctm setmatrix } bd
/iTm { _ctm setmatrix _tm concat } bd
/Tm { _tm astore pop iTm 0 0 moveto } bd
/ux 0.0 def
/uy 0.0 def
/F {
  /Tp exch def
  /Tf exch def
  Tf findfont Tp scalefont setfont
  /cf Tf def  /cs Tp def
} bd
/ULS {currentpoint /uy exch def /ux exch def} bd
/ULE {
  /Tcx currentpoint pop def
  gsave
  newpath
  cf findfont cs scalefont dup
  /FontMatrix get 0 get /Ts exch def /FontInfo get dup
  /UnderlinePosition get Ts mul /To exch def
  /UnderlineThickness get Ts mul /Tt exch def
  ux uy To add moveto  Tcx uy To add lineto
  Tt setlinewidth stroke
  grestore
} bd
/OLE {
  /Tcx currentpoint pop def
  gsave
  newpath
  cf findfont cs scalefont dup
  /FontMatrix get 0 get /Ts exch def /FontInfo get dup
  /UnderlinePosition get Ts mul /To exch def
  /UnderlineThickness get Ts mul /Tt exch def
  ux uy To add cs add moveto Tcx uy To add cs add lineto
  Tt setlinewidth stroke
  grestore
} bd
/SOE {
  /Tcx currentpoint pop def
  gsave
  newpath
  cf findfont cs scalefont dup
  /FontMatrix get 0 get /Ts exch def /FontInfo get dup
  /UnderlinePosition get Ts mul /To exch def
  /UnderlineThickness get Ts mul /Tt exch def
  ux uy To add cs 10 mul 26 idiv add moveto Tcx uy To add cs 10 mul 26 idiv add lineto
  Tt setlinewidth stroke
  grestore
} bd
/QT {
/Y22 exch store
/X22 exch store
/Y21 exch store
/X21 exch store
currentpoint
/Y21 load 2 mul add 3 div exch
/X21 load 2 mul add 3 div exch
/X21 load 2 mul /X22 load add 3 div
/Y21 load 2 mul /Y22 load add 3 div
/X22 load /Y22 load curveto
} bd
/SSPD {
dup length /d exch dict def
{
/v exch def
/k exch def
currentpagedevice k known {
/cpdv currentpagedevice k get def
v cpdv ne {
/upd false def
/nullv v type /nulltype eq def
/nullcpdv cpdv type /nulltype eq def
nullv nullcpdv or
{
/upd true def
} {
/sametype v type cpdv type eq def
sametype {
v type /arraytype eq {
/vlen v length def
/cpdvlen cpdv length def
vlen cpdvlen eq {
0 1 vlen 1 sub {
/i exch def
/obj v i get def
/cpdobj cpdv i get def
obj cpdobj ne {
/upd true def
exit
} if
} for
} {
/upd true def
} ifelse
} {
v type /dicttype eq {
v {
/dv exch def
/dk exch def
/cpddv cpdv dk get def
dv cpddv ne {
/upd true def
exit
} if
} forall
} {
/upd true def
} ifelse
} ifelse
} if
} ifelse
upd true eq {
d k v put
} if
} if
} if
} forall
d length 0 gt {
d setpagedevice
} if
} bd
/RE { % /NewFontName [NewEncodingArray] /FontName RE -
  findfont dup length dict begin
  {
    1 index /FID ne
    {def} {pop pop} ifelse
  } forall
  /Encoding exch def
  /FontName 1 index def
  currentdict definefont pop
  end
} bind def
%%EndResource
%%BeginResource: procset (Apache XML Graphics EPS ProcSet) 1.0 0
%%Version: 1.0 0
%%Copyright: (Copyright 2002-2003 The Apache Software Foundation. License terms: http://www.apache.org/licenses/LICENSE-2.0)
/BeginEPSF { %def
/b4_Inc_state save def         % Save state for cleanup
/dict_count countdictstack def % Count objects on dict stack
/op_count count 1 sub def      % Count objects on operand stack
userdict begin                 % Push userdict on dict stack
/showpage { } def              % Redefine showpage, { } = null proc
0 setgray 0 setlinecap         % Prepare graphics state
1 setlinewidth 0 setlinejoin
10 setmiterlimit [ ] 0 setdash newpath
/languagelevel where           % If level not equal to 1 then
{pop languagelevel             % set strokeadjust and
1 ne                           % overprint to their defaults.
{false setstrokeadjust false setoverprint
} if
} if
} bd
/EndEPSF { %def
count op_count sub {pop} repeat            % Clean up stacks
countdictstack dict_count sub {end} repeat
b4_Inc_state restore
} bd
%%EndResource
%FOPBeginFontDict
%%IncludeResource: font Courier-Oblique
%%IncludeResource: font Courier-BoldOblique
%%IncludeResource: font Courier-Bold
%%IncludeResource: font ZapfDingbats
%%IncludeResource: font Symbol
%%IncludeResource: font Helvetica
%%IncludeResource: font Helvetica-Oblique
%%IncludeResource: font Helvetica-Bold
%%IncludeResource: font Helvetica-BoldOblique
%%IncludeResource: font Times-Roman
%%IncludeResource: font Times-Italic
%%IncludeResource: font Times-Bold
%%IncludeResource: font Times-BoldItalic
%%IncludeResource: font Courier
%FOPEndFontDict
%%BeginResource: encoding WinAnsiEncoding
/WinAnsiEncoding [
/.notdef /.notdef /.notdef /.notdef /.notdef
/.notdef /.notdef /.notdef /.notdef /.notdef
/.notdef /.notdef /.notdef /.notdef /.notdef
/.notdef /.notdef /.notdef /.notdef /.notdef
/.notdef /.notdef /.notdef /.notdef /.notdef
/.notdef /.notdef /.notdef /.notdef /.notdef
/.notdef /.notdef /space /exclam /quotedbl
/numbersign /dollar /percent /ampersand /quotesingle
/parenleft /parenright /asterisk /plus /comma
/hyphen /period /slash /zero /one
/two /three /four /five /six
/seven /eight /nine /colon /semicolon
/less /equal /greater /question /at
/A /B /C /D /E
/F /G /H /I /J
/K /L /M /N /O
/P /Q /R /S /T
/U /V /W /X /Y
/Z /bracketleft /backslash /bracketright /asciicircum
/underscore /quoteleft /a /b /c
/d /e /f /g /h
/i /j /k /l /m
/n /o /p /q /r
/s /t /u /v /w
/x /y /z /braceleft /bar
/braceright /asciitilde /bullet /Euro /bullet
/quotesinglbase /florin /quotedblbase /ellipsis /dagger
/daggerdbl /circumflex /perthousand /Scaron /guilsinglleft
/OE /bullet /Zcaron /bullet /bullet
/quoteleft /quoteright /quotedblleft /quotedblright /bullet
/endash /emdash /asciitilde /trademark /scaron
/guilsinglright /oe /bullet /zcaron /Ydieresis
/space /exclamdown /cent /sterling /currency
/yen /brokenbar /section /dieresis /copyright
/ordfeminine /guillemotleft /logicalnot /sfthyphen /registered
/macron /degree /plusminus /twosuperior /threesuperior
/acute /mu /paragraph /middot /cedilla
/onesuperior /ordmasculine /guillemotright /onequarter /onehalf
/threequarters /questiondown /Agrave /Aacute /Acircumflex
/Atilde /Adieresis /Aring /AE /Ccedilla
/Egrave /Eacute /Ecircumflex /Edieresis /Igrave
/Iacute /Icircumflex /Idieresis /Eth /Ntilde
/Ograve /Oacute /Ocircumflex /Otilde /Odieresis
/multiply /Oslash /Ugrave /Uacute /Ucircumflex
/Udieresis /Yacute /Thorn /germandbls /agrave
/aacute /acircumflex /atilde /adieresis /aring
/ae /ccedilla /egrave /eacute /ecircumflex
/edieresis /igrave /iacute /icircumflex /idieresis
/eth /ntilde /ograve /oacute /ocircumflex
/otilde /odieresis /divide /oslash /ugrave
/uacute /ucircumflex /udieresis /yacute /thorn
/ydieresis
] def
%%EndResource
%FOPBeginFontReencode
/Courier-Oblique findfont
dup length dict begin
  {1 index /FID ne {def} {pop pop} ifelse} forall
  /Encoding WinAnsiEncoding def
  currentdict
end
/Courier-Oblique exch definefont pop
/Courier-BoldOblique findfont
dup length dict begin
  {1 index /FID ne {def} {pop pop} ifelse} forall
  /Encoding WinAnsiEncoding def
  currentdict
end
/Courier-BoldOblique exch definefont pop
/Courier-Bold findfont
dup length dict begin
  {1 index /FID ne {def} {pop pop} ifelse} forall
  /Encoding WinAnsiEncoding def
  currentdict
end
/Courier-Bold exch definefont pop
/Helvetica findfont
dup length dict begin
  {1 index /FID ne {def} {pop pop} ifelse} forall
  /Encoding WinAnsiEncoding def
  currentdict
end
/Helvetica exch definefont pop
/Helvetica-Oblique findfont
dup length dict begin
  {1 index /FID ne {def} {pop pop} ifelse} forall
  /Encoding WinAnsiEncoding def
  currentdict
end
/Helvetica-Oblique exch definefont pop
/Helvetica-Bold findfont
dup length dict begin
  {1 index /FID ne {def} {pop pop} ifelse} forall
  /Encoding WinAnsiEncoding def
  currentdict
end
/Helvetica-Bold exch definefont pop
/Helvetica-BoldOblique findfont
dup length dict begin
  {1 index /FID ne {def} {pop pop} ifelse} forall
  /Encoding WinAnsiEncoding def
  currentdict
end
/Helvetica-BoldOblique exch definefont pop
/Times-Roman findfont
dup length dict begin
  {1 index /FID ne {def} {pop pop} ifelse} forall
  /Encoding WinAnsiEncoding def
  currentdict
end
/Times-Roman exch definefont pop
/Times-Italic findfont
dup length dict begin
  {1 index /FID ne {def} {pop pop} ifelse} forall
  /Encoding WinAnsiEncoding def
  currentdict
end
/Times-Italic exch definefont pop
/Times-Bold findfont
dup length dict begin
  {1 index /FID ne {def} {pop pop} ifelse} forall
  /Encoding WinAnsiEncoding def
  currentdict
end
/Times-Bold exch definefont pop
/Times-BoldItalic findfont
dup length dict begin
  {1 index /FID ne {def} {pop pop} ifelse} forall
  /Encoding WinAnsiEncoding def
  currentdict
end
/Times-BoldItalic exch definefont pop
/Courier findfont
dup length dict begin
  {1 index /FID ne {def} {pop pop} ifelse} forall
  /Encoding WinAnsiEncoding def
  currentdict
end
/Courier exch definefont pop
%FOPEndFontReencode
%%EndProlog
%%Page: 1 1
%%PageBoundingBox: 0 0 281 304
%%BeginPageSetup
[1 0 0 -1 0 304] CT
%%EndPageSetup
GS
1 GC
N
0 0 281 304 re
f
GR
GS
1 GC
N
0 0 281 304 re
f
GR
GS
1 GC
N
39.5 218.417 M
254.5 218.417 L
254.5 75.083 L
39.5 75.083 L
cp
f
GR
GS
0.775 GC
[1 3] 0 setdash
2 LJ
0.5 LW
N
69.242 218.417 M
69.242 75.083 L
S
GR
GS
0.775 GC
[1 3] 0 setdash
2 LJ
0.5 LW
N
86.64 218.417 M
86.64 75.083 L
S
GR
GS
0.775 GC
[1 3] 0 setdash
2 LJ
0.5 LW
N
98.984 218.417 M
98.984 75.083 L
S
GR
GS
0.775 GC
[1 3] 0 setdash
2 LJ
0.5 LW
N
108.559 218.417 M
108.559 75.083 L
S
GR
GS
0.775 GC
[1 3] 0 setdash
2 LJ
0.5 LW
N
116.382 218.417 M
116.382 75.083 L
S
GR
GS
0.775 GC
[1 3] 0 setdash
2 LJ
0.5 LW
N
122.997 218.417 M
122.997 75.083 L
S
GR
GS
0.775 GC
[1 3] 0 setdash
2 LJ
0.5 LW
N
128.726 218.417 M
128.726 75.083 L
S
GR
GS
0.775 GC
[1 3] 0 setdash
2 LJ
0.5 LW
N
133.78 218.417 M
133.78 75.083 L
S
GR
GS
0.775 GC
[1 3] 0 setdash
2 LJ
0.5 LW
N
168.043 218.417 M
168.043 75.083 L
S
GR
GS
0.775 GC
[1 3] 0 setdash
2 LJ
0.5 LW
N
185.441 218.417 M
185.441 75.083 L
S
GR
GS
0.775 GC
[1 3] 0 setdash
2 LJ
0.5 LW
N
197.785 218.417 M
197.785 75.083 L
S
GR
GS
0.775 GC
[1 3] 0 setdash
2 LJ
0.5 LW
N
207.36 218.417 M
207.36 75.083 L
S
GR
GS
0.775 GC
[1 3] 0 setdash
2 LJ
0.5 LW
N
215.183 218.417 M
215.183 75.083 L
S
GR
GS
0.775 GC
[1 3] 0 setdash
2 LJ
0.5 LW
N
221.798 218.417 M
221.798 75.083 L
S
GR
GS
0.775 GC
[1 3] 0 setdash
2 LJ
0.5 LW
N
227.527 218.417 M
227.527 75.083 L
S
GR
GS
0.775 GC
[1 3] 0 setdash
2 LJ
0.5 LW
N
232.581 218.417 M
232.581 75.083 L
S
GR
GS
0.873 GC
1 LJ
0.5 LW
N
39.5 218.417 M
39.5 75.083 L
S
GR
GS
0.873 GC
1 LJ
0.5 LW
N
138.301 218.417 M
138.301 75.083 L
S
GR
GS
0.873 GC
1 LJ
0.5 LW
N
237.102 218.417 M
237.102 75.083 L
S
GR
GS
0.775 GC
[1 3] 0 setdash
2 LJ
0.5 LW
N
254.5 216.284 M
39.5 216.284 L
S
GR
GS
0.775 GC
[1 3] 0 setdash
2 LJ
0.5 LW
N
254.5 211.293 M
39.5 211.293 L
S
GR
GS
0.775 GC
[1 3] 0 setdash
2 LJ
0.5 LW
N
254.5 206.969 M
39.5 206.969 L
S
GR
GS
0.775 GC
[1 3] 0 setdash
2 LJ
0.5 LW
N
254.5 203.156 M
39.5 203.156 L
S
GR
GS
0.775 GC
[1 3] 0 setdash
2 LJ
0.5 LW
N
254.5 199.744 M
39.5 199.744 L
S
GR
GS
0.775 GC
[1 3] 0 setdash
2 LJ
0.5 LW
N
254.5 177.301 M
39.5 177.301 L
S
GR
GS
0.775 GC
[1 3] 0 setdash
2 LJ
0.5 LW
N
254.5 164.173 M
39.5 164.173 L
S
GR
GS
0.775 GC
[1 3] 0 setdash
2 LJ
0.5 LW
N
254.5 154.858 M
39.5 154.858 L
S
GR
GS
0.775 GC
[1 3] 0 setdash
2 LJ
0.5 LW
N
254.5 147.633 M
39.5 147.633 L
S
GR
GS
0.775 GC
[1 3] 0 setdash
2 LJ
0.5 LW
N
254.5 141.73 M
39.5 141.73 L
S
GR
GS
0.775 GC
[1 3] 0 setdash
2 LJ
0.5 LW
N
254.5 136.739 M
39.5 136.739 L
S
GR
GS
0.775 GC
[1 3] 0 setdash
2 LJ
0.5 LW
N
254.5 132.416 M
39.5 132.416 L
S
GR
GS
0.775 GC
[1 3] 0 setdash
2 LJ
0.5 LW
N
254.5 128.602 M
39.5 128.602 L
S
GR
GS
0.775 GC
[1 3] 0 setdash
2 LJ
0.5 LW
N
254.5 102.748 M
39.5 102.748 L
S
GR
GS
0.775 GC
[1 3] 0 setdash
2 LJ
0.5 LW
N
254.5 89.62 M
39.5 89.62 L
S
GR
GS
0.775 GC
[1 3] 0 setdash
2 LJ
0.5 LW
N
254.5 80.305 M
39.5 80.305 L
S
GR
GS
0.873 GC
1 LJ
0.5 LW
N
254.5 199.744 M
39.5 199.744 L
S
GR
GS
0.873 GC
1 LJ
0.5 LW
N
254.5 125.191 M
39.5 125.191 L
S
GR
GS
0.149 GC
2 setlinecap
1 LJ
0.5 LW
N
39.5 218.417 M
254.5 218.417 L
S
GR
GS
0.149 GC
2 setlinecap
1 LJ
0.5 LW
N
39.5 75.083 M
254.5 75.083 L
S
GR
GS
0.149 GC
2 setlinecap
1 LJ
0.5 LW
N
39.5 218.417 M
39.5 216.267 L
S
GR
GS
0.149 GC
2 setlinecap
1 LJ
0.5 LW
N
138.301 218.417 M
138.301 216.267 L
S
GR
GS
0.149 GC
2 setlinecap
1 LJ
0.5 LW
N
237.102 218.417 M
237.102 216.267 L
S
GR
GS
0.149 GC
2 setlinecap
1 LJ
0.5 LW
N
39.5 75.083 M
39.5 77.233 L
S
GR
GS
0.149 GC
2 setlinecap
1 LJ
0.5 LW
N
138.301 75.083 M
138.301 77.233 L
S
GR
GS
0.149 GC
2 setlinecap
1 LJ
0.5 LW
N
237.102 75.083 M
237.102 77.233 L
S
GR
GS
0.149 GC
2 setlinecap
1 LJ
0.5 LW
N
39.5 218.417 M
39.5 217.342 L
S
GR
GS
0.149 GC
2 setlinecap
1 LJ
0.5 LW
N
69.242 218.417 M
69.242 217.342 L
S
GR
GS
0.149 GC
2 setlinecap
1 LJ
0.5 LW
N
86.64 218.417 M
86.64 217.342 L
S
GR
GS
0.149 GC
2 setlinecap
1 LJ
0.5 LW
N
98.984 218.417 M
98.984 217.342 L
S
GR
GS
0.149 GC
2 setlinecap
1 LJ
0.5 LW
N
108.559 218.417 M
108.559 217.342 L
S
GR
GS
0.149 GC
2 setlinecap
1 LJ
0.5 LW
N
116.382 218.417 M
116.382 217.342 L
S
GR
GS
0.149 GC
2 setlinecap
1 LJ
0.5 LW
N
122.997 218.417 M
122.997 217.342 L
S
GR
GS
0.149 GC
2 setlinecap
1 LJ
0.5 LW
N
128.726 218.417 M
128.726 217.342 L
S
GR
GS
0.149 GC
2 setlinecap
1 LJ
0.5 LW
N
133.78 218.417 M
133.78 217.342 L
S
GR
GS
0.149 GC
2 setlinecap
1 LJ
0.5 LW
N
138.301 218.417 M
138.301 217.342 L
S
GR
GS
0.149 GC
2 setlinecap
1 LJ
0.5 LW
N
168.043 218.417 M
168.043 217.342 L
S
GR
GS
0.149 GC
2 setlinecap
1 LJ
0.5 LW
N
185.441 218.417 M
185.441 217.342 L
S
GR
GS
0.149 GC
2 setlinecap
1 LJ
0.5 LW
N
197.785 218.417 M
197.785 217.342 L
S
GR
GS
0.149 GC
2 setlinecap
1 LJ
0.5 LW
N
207.36 218.417 M
207.36 217.342 L
S
GR
GS
0.149 GC
2 setlinecap
1 LJ
0.5 LW
N
215.183 218.417 M
215.183 217.342 L
S
GR
GS
0.149 GC
2 setlinecap
1 LJ
0.5 LW
N
221.798 218.417 M
221.798 217.342 L
S
GR
GS
0.149 GC
2 setlinecap
1 LJ
0.5 LW
N
227.527 218.417 M
227.527 217.342 L
S
GR
GS
0.149 GC
2 setlinecap
1 LJ
0.5 LW
N
232.581 218.417 M
232.581 217.342 L
S
GR
GS
0.149 GC
2 setlinecap
1 LJ
0.5 LW
N
237.102 218.417 M
237.102 217.342 L
S
GR
GS
0.149 GC
2 setlinecap
1 LJ
0.5 LW
N
39.5 75.083 M
39.5 76.158 L
S
GR
GS
0.149 GC
2 setlinecap
1 LJ
0.5 LW
N
69.242 75.083 M
69.242 76.158 L
S
GR
GS
0.149 GC
2 setlinecap
1 LJ
0.5 LW
N
86.64 75.083 M
86.64 76.158 L
S
GR
GS
0.149 GC
2 setlinecap
1 LJ
0.5 LW
N
98.984 75.083 M
98.984 76.158 L
S
GR
GS
0.149 GC
2 setlinecap
1 LJ
0.5 LW
N
108.559 75.083 M
108.559 76.158 L
S
GR
GS
0.149 GC
2 setlinecap
1 LJ
0.5 LW
N
116.382 75.083 M
116.382 76.158 L
S
GR
GS
0.149 GC
2 setlinecap
1 LJ
0.5 LW
N
122.997 75.083 M
122.997 76.158 L
S
GR
GS
0.149 GC
2 setlinecap
1 LJ
0.5 LW
N
128.726 75.083 M
128.726 76.158 L
S
GR
GS
0.149 GC
2 setlinecap
1 LJ
0.5 LW
N
133.78 75.083 M
133.78 76.158 L
S
GR
GS
0.149 GC
2 setlinecap
1 LJ
0.5 LW
N
138.301 75.083 M
138.301 76.158 L
S
GR
GS
0.149 GC
2 setlinecap
1 LJ
0.5 LW
N
168.043 75.083 M
168.043 76.158 L
S
GR
GS
0.149 GC
2 setlinecap
1 LJ
0.5 LW
N
185.441 75.083 M
185.441 76.158 L
S
GR
GS
0.149 GC
2 setlinecap
1 LJ
0.5 LW
N
197.785 75.083 M
197.785 76.158 L
S
GR
GS
0.149 GC
2 setlinecap
1 LJ
0.5 LW
N
207.36 75.083 M
207.36 76.158 L
S
GR
GS
0.149 GC
2 setlinecap
1 LJ
0.5 LW
N
215.183 75.083 M
215.183 76.158 L
S
GR
GS
0.149 GC
2 setlinecap
1 LJ
0.5 LW
N
221.798 75.083 M
221.798 76.158 L
S
GR
GS
0.149 GC
2 setlinecap
1 LJ
0.5 LW
N
227.527 75.083 M
227.527 76.158 L
S
GR
GS
0.149 GC
2 setlinecap
1 LJ
0.5 LW
N
232.581 75.083 M
232.581 76.158 L
S
GR
GS
0.149 GC
2 setlinecap
1 LJ
0.5 LW
N
237.102 75.083 M
237.102 76.158 L
S
GR
GS
[1 0 0 1 31 235] CT
0.149 GC
/Helvetica 10 F
GS
[1 0 0 1 0 0] CT
0 0 moveto 
1 -1 scale
(10) t 
GR
GR
GS
[1 0 0 1 43 230] CT
0.149 GC
/Helvetica 8 F
GS
[1 0 0 1 0 0] CT
0 0 moveto 
1 -1 scale
(2) t 
GR
GR
GS
[1 0 0 1 129 235] CT
0.149 GC
/Helvetica 10 F
GS
[1 0 0 1 0 0] CT
0 0 moveto 
1 -1 scale
(10) t 
GR
GR
GS
[1 0 0 1 141 230] CT
0.149 GC
/Helvetica 8 F
GS
[1 0 0 1 0 0] CT
0 0 moveto 
1 -1 scale
(3) t 
GR
GR
GS
[1 0 0 1 228 235] CT
0.149 GC
/Helvetica 10 F
GS
[1 0 0 1 0 0] CT
0 0 moveto 
1 -1 scale
(10) t 
GR
GR
GS
[1 0 0 1 240 230] CT
0.149 GC
/Helvetica 8 F
GS
[1 0 0 1 0 0] CT
0 0 moveto 
1 -1 scale
(4) t 
GR
GR
GS
[1 0 0 1 139 250] CT
0.149 GC
/Helvetica 11 F
GS
[1 0 0 1 0 0] CT
0 0 moveto 
1 -1 scale
(1/) t 
GR
GR
GS
[1 0 0 1 149 250] CT
0.149 GC
N
1.359 -1.547 M
1.359 -1.188 1.492 -0.867 QT
1.625 -0.547 1.898 -0.359 QT
2.172 -0.172 2.531 -0.172 QT
2.781 -0.172 3.055 -0.273 QT
3.328 -0.375 3.57 -0.508 QT
3.813 -0.641 3.813 -0.641 QT
3.875 -0.641 3.914 -0.57 QT
3.953 -0.5 3.953 -0.438 QT
3.953 -0.375 3.922 -0.359 QT
3.234 0.125 2.516 0.125 QT
1.938 0.125 1.469 -0.148 QT
1 -0.422 0.75 -0.906 QT
0.5 -1.391 0.5 -1.953 QT
0.5 -2.531 0.727 -3.047 QT
0.953 -3.563 1.359 -3.938 QT
1.766 -4.313 2.281 -4.531 QT
2.797 -4.75 3.375 -4.75 QT
3.984 -4.75 L
4.156 -4.75 4.156 -4.578 QT
4.156 -4.484 4.094 -4.422 QT
4.031 -4.359 3.953 -4.359 QT
3.344 -4.359 L
2.906 -4.359 2.547 -4.164 QT
2.188 -3.969 1.945 -3.625 QT
1.703 -3.281 1.578 -2.844 QT
3.516 -2.844 L
3.594 -2.844 3.641 -2.797 QT
3.688 -2.75 3.688 -2.688 QT
3.688 -2.594 3.625 -2.531 QT
3.563 -2.469 3.469 -2.469 QT
1.469 -2.469 L
1.359 -1.891 1.359 -1.547 QT
cp
f
GR
GS
0.149 GC
2 setlinecap
1 LJ
0.5 LW
N
39.5 218.417 M
39.5 75.083 L
S
GR
GS
0.149 GC
2 setlinecap
1 LJ
0.5 LW
N
254.5 218.417 M
254.5 75.083 L
S
GR
GS
0.149 GC
2 setlinecap
1 LJ
0.5 LW
N
39.5 199.744 M
41.65 199.744 L
S
GR
GS
0.149 GC
2 setlinecap
1 LJ
0.5 LW
N
39.5 125.191 M
41.65 125.191 L
S
GR
GS
0.149 GC
2 setlinecap
1 LJ
0.5 LW
N
254.5 199.744 M
252.35 199.744 L
S
GR
GS
0.149 GC
2 setlinecap
1 LJ
0.5 LW
N
254.5 125.191 M
252.35 125.191 L
S
GR
GS
0.149 GC
2 setlinecap
1 LJ
0.5 LW
N
39.5 216.284 M
40.575 216.284 L
S
GR
GS
0.149 GC
2 setlinecap
1 LJ
0.5 LW
N
39.5 211.293 M
40.575 211.293 L
S
GR
GS
0.149 GC
2 setlinecap
1 LJ
0.5 LW
N
39.5 206.969 M
40.575 206.969 L
S
GR
GS
0.149 GC
2 setlinecap
1 LJ
0.5 LW
N
39.5 203.156 M
40.575 203.156 L
S
GR
GS
0.149 GC
2 setlinecap
1 LJ
0.5 LW
N
39.5 199.744 M
40.575 199.744 L
S
GR
GS
0.149 GC
2 setlinecap
1 LJ
0.5 LW
N
39.5 199.744 M
40.575 199.744 L
S
GR
GS
0.149 GC
2 setlinecap
1 LJ
0.5 LW
N
39.5 177.301 M
40.575 177.301 L
S
GR
GS
0.149 GC
2 setlinecap
1 LJ
0.5 LW
N
39.5 164.173 M
40.575 164.173 L
S
GR
GS
0.149 GC
2 setlinecap
1 LJ
0.5 LW
N
39.5 154.858 M
40.575 154.858 L
S
GR
GS
0.149 GC
2 setlinecap
1 LJ
0.5 LW
N
39.5 147.633 M
40.575 147.633 L
S
GR
GS
0.149 GC
2 setlinecap
1 LJ
0.5 LW
N
39.5 141.73 M
40.575 141.73 L
S
GR
GS
0.149 GC
2 setlinecap
1 LJ
0.5 LW
N
39.5 136.739 M
40.575 136.739 L
S
GR
GS
0.149 GC
2 setlinecap
1 LJ
0.5 LW
N
39.5 132.416 M
40.575 132.416 L
S
GR
GS
0.149 GC
2 setlinecap
1 LJ
0.5 LW
N
39.5 128.602 M
40.575 128.602 L
S
GR
GS
0.149 GC
2 setlinecap
1 LJ
0.5 LW
N
39.5 125.191 M
40.575 125.191 L
S
GR
GS
0.149 GC
2 setlinecap
1 LJ
0.5 LW
N
39.5 102.748 M
40.575 102.748 L
S
GR
GS
0.149 GC
2 setlinecap
1 LJ
0.5 LW
N
39.5 89.62 M
40.575 89.62 L
S
GR
GS
0.149 GC
2 setlinecap
1 LJ
0.5 LW
N
39.5 80.305 M
40.575 80.305 L
S
GR
GS
0.149 GC
2 setlinecap
1 LJ
0.5 LW
N
254.5 216.284 M
253.425 216.284 L
S
GR
GS
0.149 GC
2 setlinecap
1 LJ
0.5 LW
N
254.5 211.293 M
253.425 211.293 L
S
GR
GS
0.149 GC
2 setlinecap
1 LJ
0.5 LW
N
254.5 206.969 M
253.425 206.969 L
S
GR
GS
0.149 GC
2 setlinecap
1 LJ
0.5 LW
N
254.5 203.156 M
253.425 203.156 L
S
GR
GS
0.149 GC
2 setlinecap
1 LJ
0.5 LW
N
254.5 199.744 M
253.425 199.744 L
S
GR
GS
0.149 GC
2 setlinecap
1 LJ
0.5 LW
N
254.5 199.744 M
253.425 199.744 L
S
GR
GS
0.149 GC
2 setlinecap
1 LJ
0.5 LW
N
254.5 177.301 M
253.425 177.301 L
S
GR
GS
0.149 GC
2 setlinecap
1 LJ
0.5 LW
N
254.5 164.173 M
253.425 164.173 L
S
GR
GS
0.149 GC
2 setlinecap
1 LJ
0.5 LW
N
254.5 154.858 M
253.425 154.858 L
S
GR
GS
0.149 GC
2 setlinecap
1 LJ
0.5 LW
N
254.5 147.633 M
253.425 147.633 L
S
GR
GS
0.149 GC
2 setlinecap
1 LJ
0.5 LW
N
254.5 141.73 M
253.425 141.73 L
S
GR
GS
0.149 GC
2 setlinecap
1 LJ
0.5 LW
N
254.5 136.739 M
253.425 136.739 L
S
GR
GS
0.149 GC
2 setlinecap
1 LJ
0.5 LW
N
254.5 132.416 M
253.425 132.416 L
S
GR
GS
0.149 GC
2 setlinecap
1 LJ
0.5 LW
N
254.5 128.602 M
253.425 128.602 L
S
GR
GS
0.149 GC
2 setlinecap
1 LJ
0.5 LW
N
254.5 125.191 M
253.425 125.191 L
S
GR
GS
0.149 GC
2 setlinecap
1 LJ
0.5 LW
N
254.5 102.748 M
253.425 102.748 L
S
GR
GS
0.149 GC
2 setlinecap
1 LJ
0.5 LW
N
254.5 89.62 M
253.425 89.62 L
S
GR
GS
0.149 GC
2 setlinecap
1 LJ
0.5 LW
N
254.5 80.305 M
253.425 80.305 L
S
GR
GS
[1 0 0 1 16 205] CT
0.149 GC
/Helvetica 10 F
GS
[1 0 0 1 0 0] CT
0 0 moveto 
1 -1 scale
(10) t 
GR
GR
GS
[1 0 0 1 28 200] CT
0.149 GC
/Helvetica 8 F
GS
[1 0 0 1 0 0] CT
0 0 moveto 
1 -1 scale
(-4) t 
GR
GR
GS
[1 0 0 1 16 130] CT
0.149 GC
/Helvetica 10 F
GS
[1 0 0 1 0 0] CT
0 0 moveto 
1 -1 scale
(10) t 
GR
GR
GS
[1 0 0 1 28 125] CT
0.149 GC
/Helvetica 8 F
GS
[1 0 0 1 0 0] CT
0 0 moveto 
1 -1 scale
(-3) t 
GR
GR
GS
[0 -1 1 0 13 146.74994] CT
0.149 GC
/Helvetica 11 F
GS
[1 0 0 1 0 0] CT
-12.5 -3 moveto 
1 -1 scale
(Error) t 
GR
GR
GS
0 0.702 0 RC
1 LJ
2 LW
N
39.5 83.553 M
60.3 90.875 L
81.1 90.463 L
101.901 87.263 L
122.701 83.353 L
143.501 81.299 L
164.301 80.758 L
185.101 80.714 L
205.902 80.686 L
226.702 80.653 L
247.502 80.61 L
254.526 80.597 L
S
GR
GS
0 0.702 0 RC
[8 8] 0 setdash
2 LJ
2 LW
N
39.5 108.387 M
60.3 100.743 L
81.1 94.316 L
101.901 88.986 L
122.701 83.597 L
143.501 81.092 L
164.301 80.283 L
185.101 80.162 L
205.902 80.062 L
226.702 79.988 L
247.502 79.914 L
254.526 79.896 L
S
GR
GS
0 0.702 0 RC
[2 2] 0 setdash
2 LJ
2 LW
N
39.5 103.939 M
60.3 95.645 L
81.1 90.004 L
101.901 85.23 L
122.701 79.803 L
143.501 78.501 L
164.301 79.715 L
185.101 79.956 L
205.902 79.966 L
226.702 79.91 L
247.502 79.855 L
254.526 79.843 L
S
GR
GS
0.502 0 0.502 RC
1 LJ
2 LW
N
39.5 86.337 M
60.3 98.08 L
81.1 110.414 L
101.901 123.102 L
122.701 134.388 L
143.501 135.839 L
164.301 132.887 L
185.101 129.919 L
205.902 127.144 L
226.702 124.257 L
247.502 121.816 L
254.526 121.31 L
S
GR
GS
0.502 0 0.502 RC
[8 8] 0 setdash
2 LJ
2 LW
N
39.5 124.63 M
60.3 140.279 L
81.1 159.006 L
101.901 161.493 L
122.701 147.326 L
143.501 138.235 L
164.301 133.531 L
185.101 130.393 L
205.902 127.181 L
226.702 124.054 L
247.502 121.646 L
254.526 121.151 L
S
GR
GS
0.502 0 0.502 RC
[2 2] 0 setdash
2 LJ
2 LW
N
39.5 133.06 M
60.3 156.04 L
81.1 171.835 L
101.901 152.758 L
122.701 139.12 L
143.501 133.107 L
164.301 130.633 L
185.101 128.02 L
205.902 124.673 L
226.702 121.709 L
247.502 120.076 L
254.526 119.79 L
S
GR
GS
0.902 0.6 0 RC
1 LJ
2 LW
N
39.5 86.552 M
60.3 98.4 L
81.1 110.812 L
101.901 123.671 L
122.701 137.076 L
143.501 150.924 L
164.301 164.658 L
185.101 174.932 L
205.902 178.106 L
226.702 178.459 L
247.502 177.263 L
254.526 176.191 L
S
GR
GS
0.902 0.6 0 RC
[8 8] 0 setdash
2 LJ
2 LW
N
39.5 124.245 M
60.3 139.666 L
81.1 159.006 L
101.901 182.142 L
122.701 202.98 L
143.501 201.873 L
164.301 189.374 L
185.101 182.059 L
205.902 178.731 L
226.702 177.464 L
247.502 176.575 L
254.526 175.595 L
S
GR
GS
0.902 0.6 0 RC
[2 2] 0 setdash
2 LJ
2 LW
N
39.5 131.961 M
60.3 153.481 L
81.1 181.545 L
101.901 210.016 L
122.701 213.087 L
143.501 193.513 L
164.301 182.35 L
185.101 177.925 L
205.902 176.772 L
226.702 176.7 L
247.502 174.852 L
254.526 173.616 L
S
GR
GS
1 LJ
2 LW
N
39.5 86.622 M
60.3 98.5 L
81.1 110.924 L
101.901 123.809 L
122.701 137.289 L
143.501 151.321 L
164.301 165.734 L
185.101 180.298 L
205.902 194.745 L
226.702 208.584 L
244.782 218.442 L
S
GR
GS
[8 8] 0 setdash
2 LJ
2 LW
N
39.5 124.999 M
60.3 140.345 L
81.1 159.333 L
101.901 182.229 L
122.701 209.178 L
132.399 218.442 L
S
GR
GS
[2 2] 0 setdash
2 LJ
2 LW
N
39.5 133.946 M
60.3 156.04 L
81.1 182.045 L
101.901 212.615 L
107.951 218.442 L
S
GR
%%Trailer
%%Pages: 1
%%EOF
