%!PS-Adobe-3.0 EPSF-3.0
%%Creator: (MATLAB, The Mathworks, Inc. Version 9.4.0.813654 \(R2018a\). Operating System: Mac OS X)
%%Title: results/Error_n.eps
%%CreationDate: 2020-06-04T12:57:44
%%Pages: (atend)
%%BoundingBox:     1    51   262   230
%%LanguageLevel: 3
%%EndComments
%%BeginProlog
%%BeginResource: procset (Apache XML Graphics Std ProcSet) 1.2 0
%%Version: 1.2 0
%%Copyright: (Copyright 2001-2003,2010 The Apache Software Foundation. License terms: http://www.apache.org/licenses/LICENSE-2.0)
/bd{bind def}bind def
/ld{load def}bd
/GR/grestore ld
/GS/gsave ld
/RM/rmoveto ld
/C/curveto ld
/t/show ld
/L/lineto ld
/ML/setmiterlimit ld
/CT/concat ld
/f/fill ld
/N/newpath ld
/S/stroke ld
/CC/setcmykcolor ld
/A/ashow ld
/cp/closepath ld
/RC/setrgbcolor ld
/LJ/setlinejoin ld
/GC/setgray ld
/LW/setlinewidth ld
/M/moveto ld
/re {4 2 roll M
1 index 0 rlineto
0 exch rlineto
neg 0 rlineto
cp } bd
/_ctm matrix def
/_tm matrix def
/BT { _ctm currentmatrix pop matrix _tm copy pop 0 0 moveto } bd
/ET { _ctm setmatrix } bd
/iTm { _ctm setmatrix _tm concat } bd
/Tm { _tm astore pop iTm 0 0 moveto } bd
/ux 0.0 def
/uy 0.0 def
/F {
  /Tp exch def
  /Tf exch def
  Tf findfont Tp scalefont setfont
  /cf Tf def  /cs Tp def
} bd
/ULS {currentpoint /uy exch def /ux exch def} bd
/ULE {
  /Tcx currentpoint pop def
  gsave
  newpath
  cf findfont cs scalefont dup
  /FontMatrix get 0 get /Ts exch def /FontInfo get dup
  /UnderlinePosition get Ts mul /To exch def
  /UnderlineThickness get Ts mul /Tt exch def
  ux uy To add moveto  Tcx uy To add lineto
  Tt setlinewidth stroke
  grestore
} bd
/OLE {
  /Tcx currentpoint pop def
  gsave
  newpath
  cf findfont cs scalefont dup
  /FontMatrix get 0 get /Ts exch def /FontInfo get dup
  /UnderlinePosition get Ts mul /To exch def
  /UnderlineThickness get Ts mul /Tt exch def
  ux uy To add cs add moveto Tcx uy To add cs add lineto
  Tt setlinewidth stroke
  grestore
} bd
/SOE {
  /Tcx currentpoint pop def
  gsave
  newpath
  cf findfont cs scalefont dup
  /FontMatrix get 0 get /Ts exch def /FontInfo get dup
  /UnderlinePosition get Ts mul /To exch def
  /UnderlineThickness get Ts mul /Tt exch def
  ux uy To add cs 10 mul 26 idiv add moveto Tcx uy To add cs 10 mul 26 idiv add lineto
  Tt setlinewidth stroke
  grestore
} bd
/QT {
/Y22 exch store
/X22 exch store
/Y21 exch store
/X21 exch store
currentpoint
/Y21 load 2 mul add 3 div exch
/X21 load 2 mul add 3 div exch
/X21 load 2 mul /X22 load add 3 div
/Y21 load 2 mul /Y22 load add 3 div
/X22 load /Y22 load curveto
} bd
/SSPD {
dup length /d exch dict def
{
/v exch def
/k exch def
currentpagedevice k known {
/cpdv currentpagedevice k get def
v cpdv ne {
/upd false def
/nullv v type /nulltype eq def
/nullcpdv cpdv type /nulltype eq def
nullv nullcpdv or
{
/upd true def
} {
/sametype v type cpdv type eq def
sametype {
v type /arraytype eq {
/vlen v length def
/cpdvlen cpdv length def
vlen cpdvlen eq {
0 1 vlen 1 sub {
/i exch def
/obj v i get def
/cpdobj cpdv i get def
obj cpdobj ne {
/upd true def
exit
} if
} for
} {
/upd true def
} ifelse
} {
v type /dicttype eq {
v {
/dv exch def
/dk exch def
/cpddv cpdv dk get def
dv cpddv ne {
/upd true def
exit
} if
} forall
} {
/upd true def
} ifelse
} ifelse
} if
} ifelse
upd true eq {
d k v put
} if
} if
} if
} forall
d length 0 gt {
d setpagedevice
} if
} bd
/RE { % /NewFontName [NewEncodingArray] /FontName RE -
  findfont dup length dict begin
  {
    1 index /FID ne
    {def} {pop pop} ifelse
  } forall
  /Encoding exch def
  /FontName 1 index def
  currentdict definefont pop
  end
} bind def
%%EndResource
%%BeginResource: procset (Apache XML Graphics EPS ProcSet) 1.0 0
%%Version: 1.0 0
%%Copyright: (Copyright 2002-2003 The Apache Software Foundation. License terms: http://www.apache.org/licenses/LICENSE-2.0)
/BeginEPSF { %def
/b4_Inc_state save def         % Save state for cleanup
/dict_count countdictstack def % Count objects on dict stack
/op_count count 1 sub def      % Count objects on operand stack
userdict begin                 % Push userdict on dict stack
/showpage { } def              % Redefine showpage, { } = null proc
0 setgray 0 setlinecap         % Prepare graphics state
1 setlinewidth 0 setlinejoin
10 setmiterlimit [ ] 0 setdash newpath
/languagelevel where           % If level not equal to 1 then
{pop languagelevel             % set strokeadjust and
1 ne                           % overprint to their defaults.
{false setstrokeadjust false setoverprint
} if
} if
} bd
/EndEPSF { %def
count op_count sub {pop} repeat            % Clean up stacks
countdictstack dict_count sub {end} repeat
b4_Inc_state restore
} bd
%%EndResource
%FOPBeginFontDict
%%IncludeResource: font Courier-Oblique
%%IncludeResource: font Courier-BoldOblique
%%IncludeResource: font Courier-Bold
%%IncludeResource: font ZapfDingbats
%%IncludeResource: font Symbol
%%IncludeResource: font Helvetica
%%IncludeResource: font Helvetica-Oblique
%%IncludeResource: font Helvetica-Bold
%%IncludeResource: font Helvetica-BoldOblique
%%IncludeResource: font Times-Roman
%%IncludeResource: font Times-Italic
%%IncludeResource: font Times-Bold
%%IncludeResource: font Times-BoldItalic
%%IncludeResource: font Courier
%FOPEndFontDict
%%BeginResource: encoding WinAnsiEncoding
/WinAnsiEncoding [
/.notdef /.notdef /.notdef /.notdef /.notdef
/.notdef /.notdef /.notdef /.notdef /.notdef
/.notdef /.notdef /.notdef /.notdef /.notdef
/.notdef /.notdef /.notdef /.notdef /.notdef
/.notdef /.notdef /.notdef /.notdef /.notdef
/.notdef /.notdef /.notdef /.notdef /.notdef
/.notdef /.notdef /space /exclam /quotedbl
/numbersign /dollar /percent /ampersand /quotesingle
/parenleft /parenright /asterisk /plus /comma
/hyphen /period /slash /zero /one
/two /three /four /five /six
/seven /eight /nine /colon /semicolon
/less /equal /greater /question /at
/A /B /C /D /E
/F /G /H /I /J
/K /L /M /N /O
/P /Q /R /S /T
/U /V /W /X /Y
/Z /bracketleft /backslash /bracketright /asciicircum
/underscore /quoteleft /a /b /c
/d /e /f /g /h
/i /j /k /l /m
/n /o /p /q /r
/s /t /u /v /w
/x /y /z /braceleft /bar
/braceright /asciitilde /bullet /Euro /bullet
/quotesinglbase /florin /quotedblbase /ellipsis /dagger
/daggerdbl /circumflex /perthousand /Scaron /guilsinglleft
/OE /bullet /Zcaron /bullet /bullet
/quoteleft /quoteright /quotedblleft /quotedblright /bullet
/endash /emdash /asciitilde /trademark /scaron
/guilsinglright /oe /bullet /zcaron /Ydieresis
/space /exclamdown /cent /sterling /currency
/yen /brokenbar /section /dieresis /copyright
/ordfeminine /guillemotleft /logicalnot /sfthyphen /registered
/macron /degree /plusminus /twosuperior /threesuperior
/acute /mu /paragraph /middot /cedilla
/onesuperior /ordmasculine /guillemotright /onequarter /onehalf
/threequarters /questiondown /Agrave /Aacute /Acircumflex
/Atilde /Adieresis /Aring /AE /Ccedilla
/Egrave /Eacute /Ecircumflex /Edieresis /Igrave
/Iacute /Icircumflex /Idieresis /Eth /Ntilde
/Ograve /Oacute /Ocircumflex /Otilde /Odieresis
/multiply /Oslash /Ugrave /Uacute /Ucircumflex
/Udieresis /Yacute /Thorn /germandbls /agrave
/aacute /acircumflex /atilde /adieresis /aring
/ae /ccedilla /egrave /eacute /ecircumflex
/edieresis /igrave /iacute /icircumflex /idieresis
/eth /ntilde /ograve /oacute /ocircumflex
/otilde /odieresis /divide /oslash /ugrave
/uacute /ucircumflex /udieresis /yacute /thorn
/ydieresis
] def
%%EndResource
%FOPBeginFontReencode
/Courier-Oblique findfont
dup length dict begin
  {1 index /FID ne {def} {pop pop} ifelse} forall
  /Encoding WinAnsiEncoding def
  currentdict
end
/Courier-Oblique exch definefont pop
/Courier-BoldOblique findfont
dup length dict begin
  {1 index /FID ne {def} {pop pop} ifelse} forall
  /Encoding WinAnsiEncoding def
  currentdict
end
/Courier-BoldOblique exch definefont pop
/Courier-Bold findfont
dup length dict begin
  {1 index /FID ne {def} {pop pop} ifelse} forall
  /Encoding WinAnsiEncoding def
  currentdict
end
/Courier-Bold exch definefont pop
/Helvetica findfont
dup length dict begin
  {1 index /FID ne {def} {pop pop} ifelse} forall
  /Encoding WinAnsiEncoding def
  currentdict
end
/Helvetica exch definefont pop
/Helvetica-Oblique findfont
dup length dict begin
  {1 index /FID ne {def} {pop pop} ifelse} forall
  /Encoding WinAnsiEncoding def
  currentdict
end
/Helvetica-Oblique exch definefont pop
/Helvetica-Bold findfont
dup length dict begin
  {1 index /FID ne {def} {pop pop} ifelse} forall
  /Encoding WinAnsiEncoding def
  currentdict
end
/Helvetica-Bold exch definefont pop
/Helvetica-BoldOblique findfont
dup length dict begin
  {1 index /FID ne {def} {pop pop} ifelse} forall
  /Encoding WinAnsiEncoding def
  currentdict
end
/Helvetica-BoldOblique exch definefont pop
/Times-Roman findfont
dup length dict begin
  {1 index /FID ne {def} {pop pop} ifelse} forall
  /Encoding WinAnsiEncoding def
  currentdict
end
/Times-Roman exch definefont pop
/Times-Italic findfont
dup length dict begin
  {1 index /FID ne {def} {pop pop} ifelse} forall
  /Encoding WinAnsiEncoding def
  currentdict
end
/Times-Italic exch definefont pop
/Times-Bold findfont
dup length dict begin
  {1 index /FID ne {def} {pop pop} ifelse} forall
  /Encoding WinAnsiEncoding def
  currentdict
end
/Times-Bold exch definefont pop
/Times-BoldItalic findfont
dup length dict begin
  {1 index /FID ne {def} {pop pop} ifelse} forall
  /Encoding WinAnsiEncoding def
  currentdict
end
/Times-BoldItalic exch definefont pop
/Courier findfont
dup length dict begin
  {1 index /FID ne {def} {pop pop} ifelse} forall
  /Encoding WinAnsiEncoding def
  currentdict
end
/Courier exch definefont pop
%FOPEndFontReencode
%%EndProlog
%%Page: 1 1
%%PageBoundingBox: 0 0 281 304
%%BeginPageSetup
[1 0 0 -1 0 304] CT
%%EndPageSetup
GS
1 GC
N
0 0 281 304 re
f
GR
GS
1 GC
N
0 0 281 304 re
f
GR
GS
1 GC
N
39.5 218.417 M
254.5 218.417 L
254.5 75.083 L
39.5 75.083 L
cp
f
GR
GS
0.775 GC
[1 3] 0 setdash
2 LJ
0.5 LW
N
39.5 218.417 M
39.5 75.083 L
S
GR
GS
0.775 GC
[1 3] 0 setdash
2 LJ
0.5 LW
N
48.152 218.417 M
48.152 75.083 L
S
GR
GS
0.775 GC
[1 3] 0 setdash
2 LJ
0.5 LW
N
55.221 218.417 M
55.221 75.083 L
S
GR
GS
0.775 GC
[1 3] 0 setdash
2 LJ
0.5 LW
N
61.198 218.417 M
61.198 75.083 L
S
GR
GS
0.775 GC
[1 3] 0 setdash
2 LJ
0.5 LW
N
66.375 218.417 M
66.375 75.083 L
S
GR
GS
0.775 GC
[1 3] 0 setdash
2 LJ
0.5 LW
N
70.942 218.417 M
70.942 75.083 L
S
GR
GS
0.775 GC
[1 3] 0 setdash
2 LJ
0.5 LW
N
101.902 218.417 M
101.902 75.083 L
S
GR
GS
0.775 GC
[1 3] 0 setdash
2 LJ
0.5 LW
N
117.623 218.417 M
117.623 75.083 L
S
GR
GS
0.775 GC
[1 3] 0 setdash
2 LJ
0.5 LW
N
128.777 218.417 M
128.777 75.083 L
S
GR
GS
0.775 GC
[1 3] 0 setdash
2 LJ
0.5 LW
N
137.429 218.417 M
137.429 75.083 L
S
GR
GS
0.775 GC
[1 3] 0 setdash
2 LJ
0.5 LW
N
144.498 218.417 M
144.498 75.083 L
S
GR
GS
0.775 GC
[1 3] 0 setdash
2 LJ
0.5 LW
N
150.474 218.417 M
150.474 75.083 L
S
GR
GS
0.775 GC
[1 3] 0 setdash
2 LJ
0.5 LW
N
155.652 218.417 M
155.652 75.083 L
S
GR
GS
0.775 GC
[1 3] 0 setdash
2 LJ
0.5 LW
N
160.219 218.417 M
160.219 75.083 L
S
GR
GS
0.775 GC
[1 3] 0 setdash
2 LJ
0.5 LW
N
191.179 218.417 M
191.179 75.083 L
S
GR
GS
0.775 GC
[1 3] 0 setdash
2 LJ
0.5 LW
N
206.9 218.417 M
206.9 75.083 L
S
GR
GS
0.775 GC
[1 3] 0 setdash
2 LJ
0.5 LW
N
218.054 218.417 M
218.054 75.083 L
S
GR
GS
0.775 GC
[1 3] 0 setdash
2 LJ
0.5 LW
N
226.705 218.417 M
226.705 75.083 L
S
GR
GS
0.775 GC
[1 3] 0 setdash
2 LJ
0.5 LW
N
233.775 218.417 M
233.775 75.083 L
S
GR
GS
0.775 GC
[1 3] 0 setdash
2 LJ
0.5 LW
N
239.751 218.417 M
239.751 75.083 L
S
GR
GS
0.775 GC
[1 3] 0 setdash
2 LJ
0.5 LW
N
244.929 218.417 M
244.929 75.083 L
S
GR
GS
0.775 GC
[1 3] 0 setdash
2 LJ
0.5 LW
N
249.495 218.417 M
249.495 75.083 L
S
GR
GS
0.873 GC
1 LJ
0.5 LW
N
75.027 218.417 M
75.027 75.083 L
S
GR
GS
0.873 GC
1 LJ
0.5 LW
N
164.304 218.417 M
164.304 75.083 L
S
GR
GS
0.873 GC
1 LJ
0.5 LW
N
253.58 218.417 M
253.58 75.083 L
S
GR
GS
0.775 GC
[1 3] 0 setdash
2 LJ
0.5 LW
N
254.5 215.281 M
39.5 215.281 L
S
GR
GS
0.775 GC
[1 3] 0 setdash
2 LJ
0.5 LW
N
254.5 210.286 M
39.5 210.286 L
S
GR
GS
0.775 GC
[1 3] 0 setdash
2 LJ
0.5 LW
N
254.5 206.204 M
39.5 206.204 L
S
GR
GS
0.775 GC
[1 3] 0 setdash
2 LJ
0.5 LW
N
254.5 202.754 M
39.5 202.754 L
S
GR
GS
0.775 GC
[1 3] 0 setdash
2 LJ
0.5 LW
N
254.5 199.764 M
39.5 199.764 L
S
GR
GS
0.775 GC
[1 3] 0 setdash
2 LJ
0.5 LW
N
254.5 197.128 M
39.5 197.128 L
S
GR
GS
0.775 GC
[1 3] 0 setdash
2 LJ
0.5 LW
N
254.5 194.769 M
39.5 194.769 L
S
GR
GS
0.775 GC
[1 3] 0 setdash
2 LJ
0.5 LW
N
254.5 179.252 M
39.5 179.252 L
S
GR
GS
0.775 GC
[1 3] 0 setdash
2 LJ
0.5 LW
N
254.5 170.176 M
39.5 170.176 L
S
GR
GS
0.775 GC
[1 3] 0 setdash
2 LJ
0.5 LW
N
254.5 163.736 M
39.5 163.736 L
S
GR
GS
0.775 GC
[1 3] 0 setdash
2 LJ
0.5 LW
N
254.5 158.74 M
39.5 158.74 L
S
GR
GS
0.775 GC
[1 3] 0 setdash
2 LJ
0.5 LW
N
254.5 154.659 M
39.5 154.659 L
S
GR
GS
0.775 GC
[1 3] 0 setdash
2 LJ
0.5 LW
N
254.5 151.208 M
39.5 151.208 L
S
GR
GS
0.775 GC
[1 3] 0 setdash
2 LJ
0.5 LW
N
254.5 148.219 M
39.5 148.219 L
S
GR
GS
0.775 GC
[1 3] 0 setdash
2 LJ
0.5 LW
N
254.5 145.582 M
39.5 145.582 L
S
GR
GS
0.775 GC
[1 3] 0 setdash
2 LJ
0.5 LW
N
254.5 127.707 M
39.5 127.707 L
S
GR
GS
0.775 GC
[1 3] 0 setdash
2 LJ
0.5 LW
N
254.5 118.63 M
39.5 118.63 L
S
GR
GS
0.775 GC
[1 3] 0 setdash
2 LJ
0.5 LW
N
254.5 112.19 M
39.5 112.19 L
S
GR
GS
0.775 GC
[1 3] 0 setdash
2 LJ
0.5 LW
N
254.5 107.195 M
39.5 107.195 L
S
GR
GS
0.775 GC
[1 3] 0 setdash
2 LJ
0.5 LW
N
254.5 103.113 M
39.5 103.113 L
S
GR
GS
0.775 GC
[1 3] 0 setdash
2 LJ
0.5 LW
N
254.5 99.662 M
39.5 99.662 L
S
GR
GS
0.775 GC
[1 3] 0 setdash
2 LJ
0.5 LW
N
254.5 96.673 M
39.5 96.673 L
S
GR
GS
0.775 GC
[1 3] 0 setdash
2 LJ
0.5 LW
N
254.5 94.037 M
39.5 94.037 L
S
GR
GS
0.775 GC
[1 3] 0 setdash
2 LJ
0.5 LW
N
254.5 76.161 M
39.5 76.161 L
S
GR
GS
0.873 GC
1 LJ
0.5 LW
N
254.5 194.769 M
39.5 194.769 L
S
GR
GS
0.873 GC
1 LJ
0.5 LW
N
254.5 143.224 M
39.5 143.224 L
S
GR
GS
0.873 GC
1 LJ
0.5 LW
N
254.5 91.678 M
39.5 91.678 L
S
GR
GS
0.149 GC
2 setlinecap
1 LJ
0.5 LW
N
39.5 218.417 M
254.5 218.417 L
S
GR
GS
0.149 GC
2 setlinecap
1 LJ
0.5 LW
N
39.5 75.083 M
254.5 75.083 L
S
GR
GS
0.149 GC
2 setlinecap
1 LJ
0.5 LW
N
75.027 218.417 M
75.027 216.267 L
S
GR
GS
0.149 GC
2 setlinecap
1 LJ
0.5 LW
N
164.304 218.417 M
164.304 216.267 L
S
GR
GS
0.149 GC
2 setlinecap
1 LJ
0.5 LW
N
253.58 218.417 M
253.58 216.267 L
S
GR
GS
0.149 GC
2 setlinecap
1 LJ
0.5 LW
N
75.027 75.083 M
75.027 77.233 L
S
GR
GS
0.149 GC
2 setlinecap
1 LJ
0.5 LW
N
164.304 75.083 M
164.304 77.233 L
S
GR
GS
0.149 GC
2 setlinecap
1 LJ
0.5 LW
N
253.58 75.083 M
253.58 77.233 L
S
GR
GS
0.149 GC
2 setlinecap
1 LJ
0.5 LW
N
39.5 218.417 M
39.5 217.342 L
S
GR
GS
0.149 GC
2 setlinecap
1 LJ
0.5 LW
N
48.152 218.417 M
48.152 217.342 L
S
GR
GS
0.149 GC
2 setlinecap
1 LJ
0.5 LW
N
55.221 218.417 M
55.221 217.342 L
S
GR
GS
0.149 GC
2 setlinecap
1 LJ
0.5 LW
N
61.198 218.417 M
61.198 217.342 L
S
GR
GS
0.149 GC
2 setlinecap
1 LJ
0.5 LW
N
66.375 218.417 M
66.375 217.342 L
S
GR
GS
0.149 GC
2 setlinecap
1 LJ
0.5 LW
N
70.942 218.417 M
70.942 217.342 L
S
GR
GS
0.149 GC
2 setlinecap
1 LJ
0.5 LW
N
75.027 218.417 M
75.027 217.342 L
S
GR
GS
0.149 GC
2 setlinecap
1 LJ
0.5 LW
N
101.902 218.417 M
101.902 217.342 L
S
GR
GS
0.149 GC
2 setlinecap
1 LJ
0.5 LW
N
117.623 218.417 M
117.623 217.342 L
S
GR
GS
0.149 GC
2 setlinecap
1 LJ
0.5 LW
N
128.777 218.417 M
128.777 217.342 L
S
GR
GS
0.149 GC
2 setlinecap
1 LJ
0.5 LW
N
137.429 218.417 M
137.429 217.342 L
S
GR
GS
0.149 GC
2 setlinecap
1 LJ
0.5 LW
N
144.498 218.417 M
144.498 217.342 L
S
GR
GS
0.149 GC
2 setlinecap
1 LJ
0.5 LW
N
150.474 218.417 M
150.474 217.342 L
S
GR
GS
0.149 GC
2 setlinecap
1 LJ
0.5 LW
N
155.652 218.417 M
155.652 217.342 L
S
GR
GS
0.149 GC
2 setlinecap
1 LJ
0.5 LW
N
160.219 218.417 M
160.219 217.342 L
S
GR
GS
0.149 GC
2 setlinecap
1 LJ
0.5 LW
N
164.304 218.417 M
164.304 217.342 L
S
GR
GS
0.149 GC
2 setlinecap
1 LJ
0.5 LW
N
191.179 218.417 M
191.179 217.342 L
S
GR
GS
0.149 GC
2 setlinecap
1 LJ
0.5 LW
N
206.9 218.417 M
206.9 217.342 L
S
GR
GS
0.149 GC
2 setlinecap
1 LJ
0.5 LW
N
218.054 218.417 M
218.054 217.342 L
S
GR
GS
0.149 GC
2 setlinecap
1 LJ
0.5 LW
N
226.705 218.417 M
226.705 217.342 L
S
GR
GS
0.149 GC
2 setlinecap
1 LJ
0.5 LW
N
233.775 218.417 M
233.775 217.342 L
S
GR
GS
0.149 GC
2 setlinecap
1 LJ
0.5 LW
N
239.751 218.417 M
239.751 217.342 L
S
GR
GS
0.149 GC
2 setlinecap
1 LJ
0.5 LW
N
244.929 218.417 M
244.929 217.342 L
S
GR
GS
0.149 GC
2 setlinecap
1 LJ
0.5 LW
N
249.495 218.417 M
249.495 217.342 L
S
GR
GS
0.149 GC
2 setlinecap
1 LJ
0.5 LW
N
253.58 218.417 M
253.58 217.342 L
S
GR
GS
0.149 GC
2 setlinecap
1 LJ
0.5 LW
N
39.5 75.083 M
39.5 76.158 L
S
GR
GS
0.149 GC
2 setlinecap
1 LJ
0.5 LW
N
48.152 75.083 M
48.152 76.158 L
S
GR
GS
0.149 GC
2 setlinecap
1 LJ
0.5 LW
N
55.221 75.083 M
55.221 76.158 L
S
GR
GS
0.149 GC
2 setlinecap
1 LJ
0.5 LW
N
61.198 75.083 M
61.198 76.158 L
S
GR
GS
0.149 GC
2 setlinecap
1 LJ
0.5 LW
N
66.375 75.083 M
66.375 76.158 L
S
GR
GS
0.149 GC
2 setlinecap
1 LJ
0.5 LW
N
70.942 75.083 M
70.942 76.158 L
S
GR
GS
0.149 GC
2 setlinecap
1 LJ
0.5 LW
N
75.027 75.083 M
75.027 76.158 L
S
GR
GS
0.149 GC
2 setlinecap
1 LJ
0.5 LW
N
101.902 75.083 M
101.902 76.158 L
S
GR
GS
0.149 GC
2 setlinecap
1 LJ
0.5 LW
N
117.623 75.083 M
117.623 76.158 L
S
GR
GS
0.149 GC
2 setlinecap
1 LJ
0.5 LW
N
128.777 75.083 M
128.777 76.158 L
S
GR
GS
0.149 GC
2 setlinecap
1 LJ
0.5 LW
N
137.429 75.083 M
137.429 76.158 L
S
GR
GS
0.149 GC
2 setlinecap
1 LJ
0.5 LW
N
144.498 75.083 M
144.498 76.158 L
S
GR
GS
0.149 GC
2 setlinecap
1 LJ
0.5 LW
N
150.474 75.083 M
150.474 76.158 L
S
GR
GS
0.149 GC
2 setlinecap
1 LJ
0.5 LW
N
155.652 75.083 M
155.652 76.158 L
S
GR
GS
0.149 GC
2 setlinecap
1 LJ
0.5 LW
N
160.219 75.083 M
160.219 76.158 L
S
GR
GS
0.149 GC
2 setlinecap
1 LJ
0.5 LW
N
164.304 75.083 M
164.304 76.158 L
S
GR
GS
0.149 GC
2 setlinecap
1 LJ
0.5 LW
N
191.179 75.083 M
191.179 76.158 L
S
GR
GS
0.149 GC
2 setlinecap
1 LJ
0.5 LW
N
206.9 75.083 M
206.9 76.158 L
S
GR
GS
0.149 GC
2 setlinecap
1 LJ
0.5 LW
N
218.054 75.083 M
218.054 76.158 L
S
GR
GS
0.149 GC
2 setlinecap
1 LJ
0.5 LW
N
226.705 75.083 M
226.705 76.158 L
S
GR
GS
0.149 GC
2 setlinecap
1 LJ
0.5 LW
N
233.775 75.083 M
233.775 76.158 L
S
GR
GS
0.149 GC
2 setlinecap
1 LJ
0.5 LW
N
239.751 75.083 M
239.751 76.158 L
S
GR
GS
0.149 GC
2 setlinecap
1 LJ
0.5 LW
N
244.929 75.083 M
244.929 76.158 L
S
GR
GS
0.149 GC
2 setlinecap
1 LJ
0.5 LW
N
249.495 75.083 M
249.495 76.158 L
S
GR
GS
0.149 GC
2 setlinecap
1 LJ
0.5 LW
N
253.58 75.083 M
253.58 76.158 L
S
GR
GS
[1 0 0 1 66 235] CT
0.149 GC
/Helvetica 10 F
GS
[1 0 0 1 0 0] CT
0 0 moveto 
1 -1 scale
(10) t 
GR
GR
GS
[1 0 0 1 78 230] CT
0.149 GC
/Helvetica 8 F
GS
[1 0 0 1 0 0] CT
0 0 moveto 
1 -1 scale
(1) t 
GR
GR
GS
[1 0 0 1 155 235] CT
0.149 GC
/Helvetica 10 F
GS
[1 0 0 1 0 0] CT
0 0 moveto 
1 -1 scale
(10) t 
GR
GR
GS
[1 0 0 1 167 230] CT
0.149 GC
/Helvetica 8 F
GS
[1 0 0 1 0 0] CT
0 0 moveto 
1 -1 scale
(2) t 
GR
GR
GS
[1 0 0 1 245 235] CT
0.149 GC
/Helvetica 10 F
GS
[1 0 0 1 0 0] CT
0 0 moveto 
1 -1 scale
(10) t 
GR
GR
GS
[1 0 0 1 257 230] CT
0.149 GC
/Helvetica 8 F
GS
[1 0 0 1 0 0] CT
0 0 moveto 
1 -1 scale
(3) t 
GR
GR
GS
[1 0 0 1 147.00011 238.91667] CT
0.149 GC
/Helvetica 11 F
GS
[1 0 0 1 0 0] CT
-13.5 11 moveto 
1 -1 scale
(log\(n\)) t 
GR
GR
GS
0.149 GC
2 setlinecap
1 LJ
0.5 LW
N
39.5 218.417 M
39.5 75.083 L
S
GR
GS
0.149 GC
2 setlinecap
1 LJ
0.5 LW
N
254.5 218.417 M
254.5 75.083 L
S
GR
GS
0.149 GC
2 setlinecap
1 LJ
0.5 LW
N
39.5 194.769 M
41.65 194.769 L
S
GR
GS
0.149 GC
2 setlinecap
1 LJ
0.5 LW
N
39.5 143.224 M
41.65 143.224 L
S
GR
GS
0.149 GC
2 setlinecap
1 LJ
0.5 LW
N
39.5 91.678 M
41.65 91.678 L
S
GR
GS
0.149 GC
2 setlinecap
1 LJ
0.5 LW
N
254.5 194.769 M
252.35 194.769 L
S
GR
GS
0.149 GC
2 setlinecap
1 LJ
0.5 LW
N
254.5 143.224 M
252.35 143.224 L
S
GR
GS
0.149 GC
2 setlinecap
1 LJ
0.5 LW
N
254.5 91.678 M
252.35 91.678 L
S
GR
GS
0.149 GC
2 setlinecap
1 LJ
0.5 LW
N
39.5 215.281 M
40.575 215.281 L
S
GR
GS
0.149 GC
2 setlinecap
1 LJ
0.5 LW
N
39.5 210.286 M
40.575 210.286 L
S
GR
GS
0.149 GC
2 setlinecap
1 LJ
0.5 LW
N
39.5 206.204 M
40.575 206.204 L
S
GR
GS
0.149 GC
2 setlinecap
1 LJ
0.5 LW
N
39.5 202.754 M
40.575 202.754 L
S
GR
GS
0.149 GC
2 setlinecap
1 LJ
0.5 LW
N
39.5 199.764 M
40.575 199.764 L
S
GR
GS
0.149 GC
2 setlinecap
1 LJ
0.5 LW
N
39.5 197.128 M
40.575 197.128 L
S
GR
GS
0.149 GC
2 setlinecap
1 LJ
0.5 LW
N
39.5 194.769 M
40.575 194.769 L
S
GR
GS
0.149 GC
2 setlinecap
1 LJ
0.5 LW
N
39.5 194.769 M
40.575 194.769 L
S
GR
GS
0.149 GC
2 setlinecap
1 LJ
0.5 LW
N
39.5 179.252 M
40.575 179.252 L
S
GR
GS
0.149 GC
2 setlinecap
1 LJ
0.5 LW
N
39.5 170.176 M
40.575 170.176 L
S
GR
GS
0.149 GC
2 setlinecap
1 LJ
0.5 LW
N
39.5 163.736 M
40.575 163.736 L
S
GR
GS
0.149 GC
2 setlinecap
1 LJ
0.5 LW
N
39.5 158.74 M
40.575 158.74 L
S
GR
GS
0.149 GC
2 setlinecap
1 LJ
0.5 LW
N
39.5 154.659 M
40.575 154.659 L
S
GR
GS
0.149 GC
2 setlinecap
1 LJ
0.5 LW
N
39.5 151.208 M
40.575 151.208 L
S
GR
GS
0.149 GC
2 setlinecap
1 LJ
0.5 LW
N
39.5 148.219 M
40.575 148.219 L
S
GR
GS
0.149 GC
2 setlinecap
1 LJ
0.5 LW
N
39.5 145.582 M
40.575 145.582 L
S
GR
GS
0.149 GC
2 setlinecap
1 LJ
0.5 LW
N
39.5 143.224 M
40.575 143.224 L
S
GR
GS
0.149 GC
2 setlinecap
1 LJ
0.5 LW
N
39.5 127.707 M
40.575 127.707 L
S
GR
GS
0.149 GC
2 setlinecap
1 LJ
0.5 LW
N
39.5 118.63 M
40.575 118.63 L
S
GR
GS
0.149 GC
2 setlinecap
1 LJ
0.5 LW
N
39.5 112.19 M
40.575 112.19 L
S
GR
GS
0.149 GC
2 setlinecap
1 LJ
0.5 LW
N
39.5 107.195 M
40.575 107.195 L
S
GR
GS
0.149 GC
2 setlinecap
1 LJ
0.5 LW
N
39.5 103.113 M
40.575 103.113 L
S
GR
GS
0.149 GC
2 setlinecap
1 LJ
0.5 LW
N
39.5 99.662 M
40.575 99.662 L
S
GR
GS
0.149 GC
2 setlinecap
1 LJ
0.5 LW
N
39.5 96.673 M
40.575 96.673 L
S
GR
GS
0.149 GC
2 setlinecap
1 LJ
0.5 LW
N
39.5 94.037 M
40.575 94.037 L
S
GR
GS
0.149 GC
2 setlinecap
1 LJ
0.5 LW
N
39.5 91.678 M
40.575 91.678 L
S
GR
GS
0.149 GC
2 setlinecap
1 LJ
0.5 LW
N
39.5 76.161 M
40.575 76.161 L
S
GR
GS
0.149 GC
2 setlinecap
1 LJ
0.5 LW
N
254.5 215.281 M
253.425 215.281 L
S
GR
GS
0.149 GC
2 setlinecap
1 LJ
0.5 LW
N
254.5 210.286 M
253.425 210.286 L
S
GR
GS
0.149 GC
2 setlinecap
1 LJ
0.5 LW
N
254.5 206.204 M
253.425 206.204 L
S
GR
GS
0.149 GC
2 setlinecap
1 LJ
0.5 LW
N
254.5 202.754 M
253.425 202.754 L
S
GR
GS
0.149 GC
2 setlinecap
1 LJ
0.5 LW
N
254.5 199.764 M
253.425 199.764 L
S
GR
GS
0.149 GC
2 setlinecap
1 LJ
0.5 LW
N
254.5 197.128 M
253.425 197.128 L
S
GR
GS
0.149 GC
2 setlinecap
1 LJ
0.5 LW
N
254.5 194.769 M
253.425 194.769 L
S
GR
GS
0.149 GC
2 setlinecap
1 LJ
0.5 LW
N
254.5 194.769 M
253.425 194.769 L
S
GR
GS
0.149 GC
2 setlinecap
1 LJ
0.5 LW
N
254.5 179.252 M
253.425 179.252 L
S
GR
GS
0.149 GC
2 setlinecap
1 LJ
0.5 LW
N
254.5 170.176 M
253.425 170.176 L
S
GR
GS
0.149 GC
2 setlinecap
1 LJ
0.5 LW
N
254.5 163.736 M
253.425 163.736 L
S
GR
GS
0.149 GC
2 setlinecap
1 LJ
0.5 LW
N
254.5 158.74 M
253.425 158.74 L
S
GR
GS
0.149 GC
2 setlinecap
1 LJ
0.5 LW
N
254.5 154.659 M
253.425 154.659 L
S
GR
GS
0.149 GC
2 setlinecap
1 LJ
0.5 LW
N
254.5 151.208 M
253.425 151.208 L
S
GR
GS
0.149 GC
2 setlinecap
1 LJ
0.5 LW
N
254.5 148.219 M
253.425 148.219 L
S
GR
GS
0.149 GC
2 setlinecap
1 LJ
0.5 LW
N
254.5 145.582 M
253.425 145.582 L
S
GR
GS
0.149 GC
2 setlinecap
1 LJ
0.5 LW
N
254.5 143.224 M
253.425 143.224 L
S
GR
GS
0.149 GC
2 setlinecap
1 LJ
0.5 LW
N
254.5 127.707 M
253.425 127.707 L
S
GR
GS
0.149 GC
2 setlinecap
1 LJ
0.5 LW
N
254.5 118.63 M
253.425 118.63 L
S
GR
GS
0.149 GC
2 setlinecap
1 LJ
0.5 LW
N
254.5 112.19 M
253.425 112.19 L
S
GR
GS
0.149 GC
2 setlinecap
1 LJ
0.5 LW
N
254.5 107.195 M
253.425 107.195 L
S
GR
GS
0.149 GC
2 setlinecap
1 LJ
0.5 LW
N
254.5 103.113 M
253.425 103.113 L
S
GR
GS
0.149 GC
2 setlinecap
1 LJ
0.5 LW
N
254.5 99.662 M
253.425 99.662 L
S
GR
GS
0.149 GC
2 setlinecap
1 LJ
0.5 LW
N
254.5 96.673 M
253.425 96.673 L
S
GR
GS
0.149 GC
2 setlinecap
1 LJ
0.5 LW
N
254.5 94.037 M
253.425 94.037 L
S
GR
GS
0.149 GC
2 setlinecap
1 LJ
0.5 LW
N
254.5 91.678 M
253.425 91.678 L
S
GR
GS
0.149 GC
2 setlinecap
1 LJ
0.5 LW
N
254.5 76.161 M
253.425 76.161 L
S
GR
GS
[1 0 0 1 16 200] CT
0.149 GC
/Helvetica 10 F
GS
[1 0 0 1 0 0] CT
0 0 moveto 
1 -1 scale
(10) t 
GR
GR
GS
[1 0 0 1 28 195] CT
0.149 GC
/Helvetica 8 F
GS
[1 0 0 1 0 0] CT
0 0 moveto 
1 -1 scale
(-4) t 
GR
GR
GS
[1 0 0 1 16 148] CT
0.149 GC
/Helvetica 10 F
GS
[1 0 0 1 0 0] CT
0 0 moveto 
1 -1 scale
(10) t 
GR
GR
GS
[1 0 0 1 28 143] CT
0.149 GC
/Helvetica 8 F
GS
[1 0 0 1 0 0] CT
0 0 moveto 
1 -1 scale
(-3) t 
GR
GR
GS
[1 0 0 1 16 97] CT
0.149 GC
/Helvetica 10 F
GS
[1 0 0 1 0 0] CT
0 0 moveto 
1 -1 scale
(10) t 
GR
GR
GS
[1 0 0 1 28 92] CT
0.149 GC
/Helvetica 8 F
GS
[1 0 0 1 0 0] CT
0 0 moveto 
1 -1 scale
(-2) t 
GR
GR
GS
[0 -1 1 0 13 146.74994] CT
0.149 GC
/Helvetica 11 F
GS
[1 0 0 1 0 0] CT
-22.5 -3 moveto 
1 -1 scale
(log\(Error\)) t 
GR
GR
GS
1 0 0 RC
1 LJ
2 LW
N
39.5 83.261 M
55.221 105.64 L
66.375 109.924 L
78.722 114.436 L
93.25 115.758 L
107.321 116.162 L
120.125 116.36 L
133.344 116.459 L
147 116.509 L
160.647 116.506 L
173.875 116.546 L
187.308 116.55 L
200.75 116.555 L
214.183 116.556 L
227.625 116.557 L
241.058 116.557 L
254.5 116.557 L
S
GR
GS
1 0 0 RC
[8 8] 0 setdash
2 LJ
2 LW
N
39.5 79.911 M
55.221 106.597 L
66.375 120.054 L
78.722 131.606 L
93.25 142.903 L
107.321 143.091 L
120.125 142.836 L
133.344 142.651 L
147 142.57 L
160.647 142.53 L
173.875 142.495 L
187.308 142.48 L
200.75 142.476 L
214.183 142.471 L
227.625 142.471 L
241.058 142.471 L
254.5 142.47 L
S
GR
GS
1 0 0 RC
[2 2] 0 setdash
2 LJ
2 LW
N
39.5 76.395 M
55.221 103.576 L
66.375 118.571 L
78.722 128.531 L
93.25 147.915 L
107.321 149.277 L
120.125 148.664 L
133.344 148.152 L
147 147.905 L
160.647 147.804 L
173.875 147.688 L
187.308 147.65 L
200.75 147.633 L
214.183 147.622 L
227.625 147.618 L
241.058 147.618 L
254.5 147.614 L
S
GR
GS
0 0 1 RC
1 LJ
2 LW
N
39.5 77.875 M
55.221 96.623 L
66.375 104.332 L
78.722 114.297 L
93.25 130.821 L
107.321 143.661 L
120.125 149.583 L
133.344 151.291 L
147 151.441 L
160.647 151.387 L
173.875 151.555 L
187.308 151.568 L
200.75 151.58 L
214.183 151.586 L
227.625 151.586 L
241.058 151.587 L
254.5 151.588 L
S
GR
GS
0 0 1 RC
[8 8] 0 setdash
2 LJ
2 LW
N
39.5 75.186 M
55.221 94.902 L
66.375 103.444 L
78.722 114.466 L
93.25 132.989 L
107.321 149.467 L
120.125 158.527 L
133.344 181.508 L
147 197.006 L
160.647 201.291 L
173.875 199.759 L
187.308 199.478 L
200.75 199.253 L
214.183 199.172 L
227.625 199.128 L
241.058 199.117 L
254.5 199.097 L
S
GR
GS
0 0 1 RC
[2 2] 0 setdash
2 LJ
2 LW
N
39.5 75.083 M
55.221 93.938 L
66.375 100.847 L
78.722 111.843 L
93.25 129.609 L
107.321 145.866 L
120.125 152.854 L
133.344 177.678 L
147 203.994 L
160.647 217.519 L
173.875 216.524 L
187.308 217.046 L
200.75 216.739 L
214.183 216.796 L
227.625 216.83 L
241.058 216.905 L
254.5 216.889 L
S
GR
GS
1 LJ
2 LW
N
39.5 83.261 M
55.221 105.64 L
66.375 111.854 L
78.722 119.498 L
93.25 132.806 L
107.321 143.661 L
120.125 150.585 L
133.344 164.787 L
147 180.053 L
160.647 195.731 L
173.875 210.238 L
187.308 218.417 L
S
GR
GS
[8 8] 0 setdash
2 LJ
2 LW
N
39.5 79.911 M
55.221 106.597 L
66.375 120.054 L
78.722 131.606 L
93.25 148.448 L
107.321 160.351 L
120.125 168.323 L
133.344 181.508 L
147 197.006 L
160.647 214.316 L
S
GR
GS
[2 2] 0 setdash
2 LJ
2 LW
N
39.5 76.395 M
55.221 103.576 L
66.375 118.571 L
78.722 128.531 L
93.25 147.915 L
107.321 162.906 L
120.125 175.473 L
133.344 187.866 L
147 203.994 L
160.647 217.519 L
S
GR
%%Trailer
%%Pages: 1
%%EOF
